buffertest0.vcd
$comment
Auto-generated from buffertest0.log.
$end
$timescale 1ps $end
$scope module _test_buffertest0 $end
$var wire 1 %b_ct_0 b.ct_0 $end
$var wire 1 %b_x_r b.x_r $end
$var wire 1 %b_c2_0 b.c2_0 $end
$var wire 1 %b_x_a b.x_a $end
$var wire 1 %b_pt_0 b.pt_0 $end
$var wire 1 %b_c0_1 b.c0_1 $end
$var wire 1 %b_p0_1 b.p0_1 $end
$var wire 1 %b_p2_0 b.p2_0 $end
$var wire 1 %b_c1_0 b.c1_0 $end
$var wire 1 %b_p1_0 b.p1_0 $end
$var wire 1 %b_p_a b.p_a $end
$var wire 1 %b_c_a b.c_a $end
$var wire 1 %b_c2_1 b.c2_1 $end
$var wire 1 %b_p2_1 b.p2_1 $end
$var wire 1 %b_c1_1 b.c1_1 $end
$var wire 1 %b_p1_1 b.p1_1 $end
$var wire 1 %b_c0_0 b.c0_0 $end
$var wire 1 %b_p0_0 b.p0_0 $end
$var wire 1 %b_ct_1 b.ct_1 $end
$var wire 1 %b_a b.a $end
$upscope $end
$enddefinitions $end
$dumpvars
0%b_ct_0
0%b_x_r
0%b_c2_0
0%b_x_a
0%b_pt_0
0%b_c0_1
0%b_p0_1
0%b_p2_0
0%b_c1_0
0%b_p1_0
0%b_p_a
0%b_c_a
0%b_c2_1
0%b_p2_1
0%b_c1_1
0%b_p1_1
0%b_c0_0
0%b_p0_0
0%b_ct_1
0%b_a
$end
#603121
1%b_ct_0
#603122
1%b_x_r
#603125
1%b_c2_0
#603159
1%b_x_a
#603271
1%b_pt_0
#603314
1%b_c0_1
#603354
1%b_p0_1
#603898
1%b_p2_0
#654896
1%b_c1_0
#655153
1%b_p1_0
#655240
1%b_p_a
#655534
1%b_c_a
#655535
0%b_ct_0
#656125
0%b_pt_0
#656743
0%b_c2_0
#656921
0%b_p2_0
#657340
0%b_c1_0
#657541
0%b_c0_1
#657705
0%b_p0_1
#658143
0%b_p1_0
#660338
0%b_p_a
#660360
0%b_c_a
#721502
1%b_ct_0
#721509
1%b_pt_0
#721563
1%b_c0_1
#723661
1%b_c2_1
#723767
1%b_p2_1
#724350
1%b_p0_1
#778933
1%b_c1_1
#779208
1%b_p1_1
#798204
1%b_p_a
#798659
1%b_c_a
#798671
0%b_ct_0
0%b_c2_1
#799063
0%b_c1_1
#801570
0%b_p2_1
#802947
0%b_pt_0
#803358
0%b_p1_1
#804575
0%b_c0_1
#804577
0%b_p0_1
#809112
0%b_p_a
#810361
0%b_c_a
#858439
1%b_c1_0
#858455
1%b_p1_0
#858495
1%b_c2_1
#858798
1%b_c0_0
#858976
1%b_ct_0
#859326
1%b_p0_0
#861411
1%b_pt_0
#863057
1%b_p2_1
#889937
1%b_p_a
#913862
1%b_c_a
#913864
0%b_c0_0
#913865
0%b_ct_0
#913893
0%b_p0_0
#914182
0%b_pt_0
#926903
0%b_c1_0
#928504
0%b_p1_0
#974820
0%b_c2_1
#974973
0%b_p2_1
#975017
0%b_p_a
#977778
0%b_c_a
#1001328
1%b_c0_0
#1002470
1%b_ct_0
#1002471
1%b_pt_0
#1003415
1%b_c1_1
#1004015
1%b_c2_0
#1004177
1%b_p2_0
#1007682
1%b_p0_0
#1042699
1%b_p1_1
#1042713
1%b_p_a
#1042720
1%b_c_a
#1042721
0%b_ct_0
0%b_c2_0
#1042722
0%b_pt_0
#1042880
0%b_c0_0
#1043067
0%b_p0_0
#1044964
0%b_p2_0
#1064277
0%b_c1_1
#1064278
0%b_p1_1
#1068460
0%b_p_a
#1103242
0%b_c_a
#1115923
1%b_c0_0
#1115964
1%b_c2_0
#1116059
1%b_p2_0
#1116863
1%b_ct_0
#1117198
1%b_pt_0
#1118740
1%b_p0_0
#1174884
1%b_c1_0
#1174892
1%b_p1_0
#1174926
1%b_p_a
#1188813
1%b_c_a
#1188817
0%b_c1_0
#1189731
0%b_c0_0
#1191211
0%b_c2_0
#1191259
0%b_p2_0
#1192032
0%b_p1_0
#1235191
0%b_ct_0
#1235194
0%b_pt_0
#1236850
0%b_p0_0
#1237028
0%b_p_a
#1258005
0%b_c_a
#1315525
1%b_c2_0
#1315528
1%b_ct_1
#1315620
1%b_c1_0
#1315660
1%b_c0_1
#1315672
1%b_p0_1
#1315769
1%b_pt_0
#1319579
1%b_p1_0
#1334571
1%b_p2_0
#1338471
1%b_p_a
#1338472
1%b_c_a
#1338473
0%b_c1_0
#1338509
0%b_c0_1
#1338510
0%b_p0_1
#1338528
0%b_c2_0
#1339500
1%b_a
#1342092
0%b_p2_0
#1361848
0%b_p1_0
#1383478
0%b_ct_1
#1383491
0%b_pt_0
#1400475
0%b_p_a
#1400500
0%b_c_a
#1400832
0%b_x_r
#1400833
0%b_x_a
#1400994
0%b_a
#1413593
1%b_c0_0
#1414208
1%b_c2_1
#1414569
1%b_ct_0
#1416028
1%b_x_r
#1416098
1%b_x_a
#1416101
1%b_pt_0
#1416109
1%b_p2_1
#1421820
1%b_c1_0
#1421874
1%b_p1_0
#1466520
1%b_p0_0
#1467681
1%b_p_a
#1476333
1%b_c_a
#1476414
0%b_c0_0
#1476425
0%b_c2_1
#1478169
0%b_p2_1
#1484725
0%b_p0_0
#1487410
0%b_c1_0
#1488023
0%b_p1_0
#1494316
0%b_ct_0
#1508338
0%b_pt_0
#1508383
0%b_p_a
#1509380
0%b_c_a
#1528067
1%b_c1_0
#1528070
1%b_c0_1
#1528071
1%b_p0_1
#1528420
1%b_ct_0
#1528499
1%b_pt_0
#1528612
1%b_c2_0
#1531045
1%b_p2_0
#1573630
1%b_p1_0
#1573718
1%b_p_a
#1581500
1%b_c_a
#1581530
0%b_ct_0
#1581559
0%b_c2_0
#1582967
0%b_c0_1
#1583652
0%b_p0_1
#1600943
0%b_p2_0
#1609827
0%b_c1_0
#1626542
0%b_p1_0
#1641034
0%b_pt_0
#1641161
0%b_p_a
#1641330
0%b_c_a
#1655418
1%b_c0_1
#1655419
1%b_c1_1
#1655420
1%b_p0_1
#1655437
1%b_p1_1
#1656918
1%b_c2_1
#1658144
1%b_ct_1
#1658152
1%b_pt_0
#1662638
1%b_p2_1
#1662692
1%b_p_a
#1662697
1%b_c_a
#1662698
0%b_ct_1
0%b_c2_1
#1662699
X%b_a
#1662762
0%b_pt_0
#1662821
0%b_p2_1
#1662835
0%b_c1_1
#1662837
0%b_p1_1
#1663764
0%b_c0_1
#1663801
0%b_p0_1
#1663944
0%b_p_a
#1663945
X%b_x_r
#1663995
0%b_c_a
#1664387
0%b_x_a
#1667908
0%b_a
#1726681
1%b_c1_1
#1726873
1%b_c0_1
#1727282
1%b_c2_1
#1749611
1%b_ct_1
