childtest0.vcd
$comment
Auto-generated from childtest0.log.
$end
$timescale 1ps $end
$scope module _test_childtest0 $end
$var wire 1 %tr_c_2_ tr.c_2_ $end
$var wire 1 %tr_c_4_ tr.c_4_ $end
$var wire 1 %tr_c_6_ tr.c_6_ $end
$var wire 1 %tr_c_1_ tr.c_1_ $end
$var wire 1 %tc_p_a tc.p_a $end
$var wire 1 %tr_c_3_ tr.c_3_ $end
$var wire 1 %tr_c_5_ tr.c_5_ $end
$var wire 1 %tr_c_0_ tr.c_0_ $end
$var wire 1 %tr_c_7_ tr.c_7_ $end
$upscope $end
$enddefinitions $end
$dumpvars
0%tr_c_2_
0%tr_c_4_
0%tr_c_6_
0%tr_c_1_
0%tc_p_a
0%tr_c_3_
0%tr_c_5_
0%tr_c_0_
0%tr_c_7_
$end
#602157
1%tr_c_2_
#602161
1%tr_c_4_
#602215
1%tr_c_6_
#602350
1%tr_c_1_
#602351
1%tc_p_a
#602388
0%tr_c_2_
#602463
0%tr_c_6_
#603090
0%tr_c_1_
#649863
0%tr_c_4_
#649903
0%tc_p_a
#659412
1%tr_c_3_
#660051
1%tr_c_6_
#660095
1%tr_c_5_
#661443
1%tr_c_1_
#661576
1%tc_p_a
#661797
0%tr_c_6_
#661935
0%tr_c_1_
#675692
0%tr_c_5_
#677238
0%tr_c_3_
#677245
0%tc_p_a
#749764
1%tr_c_5_
#749830
1%tr_c_6_
#750027
1%tr_c_2_
#750207
1%tr_c_0_
#750611
1%tc_p_a
#750623
0%tr_c_5_
#753510
0%tr_c_6_
#754887
0%tr_c_2_
#756527
0%tr_c_0_
#760822
0%tc_p_a
#778899
1%tr_c_6_
#778908
1%tr_c_4_
#779445
1%tr_c_0_
#822814
1%tr_c_3_
#822881
1%tc_p_a
#822897
0%tr_c_3_
#823409
0%tr_c_4_
#825522
0%tr_c_6_
#827443
0%tr_c_0_
#829878
0%tc_p_a
#942142
1%tr_c_2_
#943590
1%tr_c_6_
#944750
1%tr_c_0_
#955672
1%tr_c_4_
#955889
1%tc_p_a
#955890
0%tr_c_4_
#955911
0%tr_c_2_
#957470
0%tr_c_0_
#965234
0%tr_c_6_
#965393
0%tc_p_a
#1028625
1%tr_c_1_
#1028778
1%tr_c_4_
#1028780
1%tr_c_7_
#1035987
1%tr_c_2_
#1035988
1%tc_p_a
#1035989
0%tr_c_1_
0%tr_c_2_
#1036175
0%tr_c_4_
#1038231
0%tr_c_7_
#1038232
0%tc_p_a
#1146314
1%tr_c_6_
#1146367
1%tr_c_0_
#1146607
1%tr_c_5_
#1149089
1%tr_c_2_
#1149097
1%tc_p_a
#1149101
0%tr_c_0_
#1149131
0%tr_c_6_
#1150015
0%tr_c_5_
#1162984
0%tr_c_2_
#1165382
0%tc_p_a
#1236875
1%tr_c_4_
#1237047
1%tr_c_1_
#1237701
1%tr_c_2_
#1276359
1%tr_c_6_
#1276363
1%tc_p_a
#1276364
0%tr_c_1_
#1276459
0%tr_c_6_
#1276499
0%tr_c_2_
#1313651
0%tr_c_4_
#1332697
0%tc_p_a
#1386889
1%tr_c_7_
1%tr_c_1_
#1386925
1%tr_c_3_
#1390452
1%tr_c_5_
#1392144
1%tc_p_a
#1392157
0%tr_c_7_
#1392169
0%tr_c_1_
#1392501
0%tr_c_3_
#1409128
0%tr_c_5_
#1409149
0%tc_p_a
#1525899
1%tr_c_5_
#1532466
1%tr_c_1_
#1535232
1%tr_c_7_
#1542138
1%tr_c_3_
#1556160
1%tc_p_a
#1556205
0%tr_c_5_
#1556685
0%tr_c_1_
#1557157
0%tr_c_3_
#1557809
0%tr_c_7_
#1558709
0%tc_p_a
#1641231
1%tr_c_3_
#1642639
1%tr_c_1_
#1669499
1%tr_c_6_
#1700676
1%tr_c_4_
#1701361
1%tc_p_a
#1701404
0%tr_c_1_
#1701488
0%tr_c_4_
#1701530
0%tr_c_6_
#1718076
0%tr_c_3_
#1718088
0%tc_p_a
#1732392
1%tr_c_3_
#1732393
1%tr_c_6_
#1732409
1%tr_c_5_
#1733892
1%tr_c_0_
#1739612
1%tc_p_a
#1739617
0%tr_c_6_
#1739620
0%tr_c_3_
#1739666
0%tr_c_0_
#1790150
0%tr_c_5_
#1791217
0%tc_p_a
#1791724
1%tr_c_0_
#1791732
1%tr_c_4_
#1791774
1%tr_c_6_
#1792165
1%tr_c_3_
#1802418
1%tc_p_a
#1802563
0%tr_c_3_
#1802648
0%tr_c_4_
#1805939
0%tr_c_0_
#1818586
0%tr_c_6_
#1819277
0%tc_p_a
#1844860
1%tr_c_1_
#1844876
1%tr_c_5_
#1845498
1%tr_c_6_
#1846652
1%tr_c_2_
#1849635
1%tc_p_a
#1849638
0%tr_c_1_
#1849641
0%tr_c_6_
#1850059
0%tr_c_2_
#1852223
0%tr_c_5_
#1854684
0%tc_p_a
#1879382
1%tr_c_1_
1%tr_c_5_
1%tr_c_2_
#1879807
1%tr_c_6_
#1879826
1%tc_p_a
#1879987
0%tr_c_2_
#1879994
0%tr_c_1_
#1879999
0%tr_c_5_
#1880365
0%tr_c_6_
#1882912
0%tc_p_a
#1896933
1%tr_c_6_
#1897095
1%tr_c_0_
#1898708
1%tr_c_3_
#1936799
1%tr_c_4_
#1937732
1%tc_p_a
#1937871
0%tr_c_4_
#1937927
0%tr_c_0_
#1938588
0%tr_c_6_
#1963941
0%tr_c_3_
#1963943
0%tc_p_a
#2071780
1%tr_c_5_
#2071784
1%tr_c_1_
#2072004
1%tr_c_6_
#2072597
1%tr_c_2_
#2072612
1%tc_p_a
#2072705
0%tr_c_6_
#2072719
0%tr_c_2_
#2074264
0%tr_c_1_
#2093413
0%tr_c_5_
#2097352
0%tc_p_a
#2142826
1%tr_c_7_
#2142831
1%tr_c_3_
#2164424
1%tr_c_4_
#2182314
1%tr_c_1_
#2204822
1%tc_p_a
#2204829
0%tr_c_7_
#2204835
0%tr_c_4_
#2204887
0%tr_c_1_
#2205946
0%tr_c_3_
#2206050
0%tc_p_a
#2521777
1%tr_c_2_
#2522046
1%tr_c_0_
#2528481
1%tr_c_6_
#2529308
1%tr_c_5_
#2529309
1%tc_p_a
#2529324
0%tr_c_6_
#2530996
0%tr_c_5_
#2531039
0%tr_c_2_
#2553583
0%tr_c_0_
#2554037
0%tc_p_a
#2568658
1%tr_c_6_
#2568791
1%tr_c_3_
#2568865
1%tr_c_5_
#2569995
1%tr_c_1_
#2601576
1%tc_p_a
#2601594
0%tr_c_6_
#2601696
0%tr_c_3_
#2603770
0%tr_c_1_
#2639548
0%tr_c_5_
#2645863
0%tc_p_a
#2655671
1%tr_c_2_
#2664768
1%tr_c_6_
#2666238
1%tr_c_5_
#2674466
1%tr_c_1_
#2692127
1%tc_p_a
#2692164
0%tr_c_6_
#2692383
0%tr_c_1_
#2695508
0%tr_c_2_
#2707057
0%tr_c_5_
#2707069
0%tc_p_a
#2792430
1%tr_c_3_
#2792448
1%tr_c_5_
#2792813
1%tr_c_1_
#2801417
1%tr_c_6_
#2801426
1%tc_p_a
#2801614
0%tr_c_6_
#2805026
0%tr_c_5_
#2823380
0%tr_c_3_
#2847202
0%tr_c_1_
#2866079
0%tc_p_a
#2894012
1%tr_c_0_
#2894030
1%tr_c_3_
#2895393
1%tr_c_7_
#2895886
1%tr_c_4_
#2896468
1%tc_p_a
#2896469
0%tr_c_7_
#2896470
0%tr_c_0_
#2896471
0%tr_c_4_
#2899920
0%tr_c_3_
#2907053
0%tc_p_a
#3000106
1%tr_c_3_
#3000117
1%tr_c_1_
#3000141
1%tr_c_7_
#3024136
1%tr_c_5_
#3037126
1%tc_p_a
#3037127
0%tr_c_7_
#3037338
0%tr_c_1_
#3049024
0%tr_c_3_
#3080076
0%tr_c_5_
#3087488
0%tc_p_a
#3230421
1%tr_c_4_
#3231079
1%tr_c_6_
#3231640
1%tr_c_3_
#3238870
1%tr_c_1_
#3238871
1%tc_p_a
#3238873
0%tr_c_3_
#3239230
0%tr_c_6_
#3247022
0%tr_c_4_
#3258716
0%tr_c_1_
#3283227
0%tc_p_a
#3337079
1%tr_c_5_
#3337159
1%tr_c_2_
#3337438
1%tr_c_6_
#3385238
1%tr_c_1_
#3385239
1%tc_p_a
#3385251
0%tr_c_6_
#3386097
0%tr_c_1_
#3389584
0%tr_c_5_
#3421668
0%tr_c_2_
#3472637
0%tc_p_a
#3566666
1%tr_c_6_
#3566675
1%tr_c_5_
#3566699
1%tr_c_2_
#3567297
1%tr_c_0_
#3591575
1%tc_p_a
#3591576
0%tr_c_2_
0%tr_c_5_
#3613187
0%tr_c_0_
#3636794
0%tr_c_6_
#3637132
0%tc_p_a
#3727722
1%tr_c_5_
#3728254
1%tr_c_6_
#3729816
1%tr_c_0_
#3786300
1%tr_c_2_
#3786357
1%tc_p_a
#3786358
0%tr_c_5_
#3786361
0%tr_c_0_
#3786903
0%tr_c_6_
#3795077
0%tr_c_2_
#3795088
0%tc_p_a
#3856790
1%tr_c_5_
#3858728
1%tr_c_6_
#3859175
1%tr_c_2_
#3881262
1%tr_c_1_
#3887223
1%tc_p_a
#3887224
0%tr_c_6_
#3887241
0%tr_c_2_
#3887245
0%tr_c_5_
#3887349
0%tr_c_1_
#3910187
0%tc_p_a
#3917202
1%tr_c_6_
1%tr_c_3_
#3917205
1%tr_c_5_
#3917207
1%tr_c_0_
#3944226
1%tc_p_a
#3944227
0%tr_c_0_
#3944230
0%tr_c_6_
#3944251
0%tr_c_5_
#3944401
0%tr_c_3_
#3946776
0%tc_p_a
#4054806
1%tr_c_7_
#4068296
1%tr_c_4_
#4093720
1%tr_c_0_
#4101882
1%tr_c_2_
#4114589
1%tc_p_a
#4114590
0%tr_c_2_
#4114596
0%tr_c_7_
#4114869
0%tr_c_0_
#4128676
0%tr_c_4_
#4128683
0%tc_p_a
#4387853
1%tr_c_6_
#4388119
1%tr_c_4_
#4392520
1%tr_c_2_
#4398316
1%tr_c_0_
#4401896
1%tc_p_a
#4402024
0%tr_c_0_
#4411858
0%tr_c_4_
#4439954
0%tr_c_6_
#4454973
0%tr_c_2_
#4455052
0%tc_p_a
#4462167
1%tr_c_3_
#4462201
1%tr_c_6_
#4462290
1%tr_c_1_
#4511879
1%tr_c_5_
#4511880
1%tc_p_a
#4511892
0%tr_c_6_
#4511901
0%tr_c_3_
#4517741
0%tr_c_5_
#4526274
0%tr_c_1_
#4526676
0%tc_p_a
#4631365
1%tr_c_6_
#4642983
1%tr_c_4_
#4646381
1%tr_c_3_
#4691410
1%tr_c_0_
#4691766
1%tc_p_a
#4691767
0%tr_c_6_
0%tr_c_0_
#4691774
0%tr_c_3_
#4719395
0%tr_c_4_
#4719420
0%tc_p_a
#4729506
1%tr_c_5_
#4729507
1%tr_c_2_
#4729536
1%tr_c_7_
#4729608
1%tr_c_0_
#4730057
1%tc_p_a
#4730058
0%tr_c_7_
#4731268
0%tr_c_2_
#4736261
0%tr_c_5_
#4763464
0%tr_c_0_
#4763617
0%tc_p_a
#4973154
1%tr_c_1_
#4982761
1%tr_c_3_
#4990586
1%tr_c_6_
#5018634
1%tr_c_5_
#5018799
1%tc_p_a
#5018800
0%tr_c_6_
0%tr_c_3_
#5018814
0%tr_c_5_
#5020719
0%tr_c_1_
#5021466
0%tc_p_a
#5068508
1%tr_c_3_
#5069059
1%tr_c_1_
#5070592
1%tr_c_4_
#5076895
1%tr_c_6_
#5110695
1%tc_p_a
#5110696
0%tr_c_4_
0%tr_c_1_
#5110721
0%tr_c_6_
#5111442
0%tr_c_3_
#5118522
0%tc_p_a
#5136284
1%tr_c_6_
#5138373
1%tr_c_3_
#5147991
1%tr_c_4_
#5165938
1%tr_c_0_
#5166292
1%tc_p_a
#5166310
0%tr_c_4_
#5167189
0%tr_c_6_
#5169573
0%tr_c_3_
#5177584
0%tr_c_0_
#5177851
0%tc_p_a
#5267121
1%tr_c_6_
#5269705
1%tr_c_3_
#5273742
1%tr_c_1_
#5279750
1%tr_c_4_
#5279845
1%tc_p_a
#5279846
0%tr_c_4_
0%tr_c_3_
#5284206
0%tr_c_6_
#5309350
0%tr_c_1_
#5334379
0%tc_p_a
#5337650
1%tr_c_6_
#5337655
1%tr_c_3_
#5337692
1%tr_c_5_
#5338034
1%tr_c_1_
#5349182
1%tc_p_a
#5350515
0%tr_c_5_
#5353486
0%tr_c_1_
#5366389
0%tr_c_6_
#5405530
0%tr_c_3_
#5405591
0%tc_p_a
#5441578
1%tr_c_4_
#5441612
1%tr_c_6_
#5443775
1%tr_c_0_
#5448226
1%tr_c_2_
#5449908
1%tc_p_a
#5449914
0%tr_c_4_
#5450891
0%tr_c_6_
#5481341
0%tr_c_0_
#5489974
0%tr_c_2_
#5490023
0%tc_p_a
#5502702
1%tr_c_6_
#5502787
1%tr_c_2_
#5502809
1%tr_c_5_
#5503453
1%tr_c_0_
#5517773
1%tc_p_a
#5517774
0%tr_c_6_
0%tr_c_0_
#5517779
0%tr_c_5_
#5519069
0%tr_c_2_
#5519087
0%tc_p_a
#5637662
1%tr_c_7_
#5637700
1%tr_c_5_
#5639137
1%tr_c_2_
#5647352
1%tr_c_1_
#5647355
1%tc_p_a
#5647372
0%tr_c_2_
#5647513
0%tr_c_7_
#5650966
0%tr_c_1_
#5657043
0%tr_c_5_
#5716036
0%tc_p_a
#5843352
1%tr_c_2_
#5844447
1%tr_c_0_
#5844632
1%tr_c_6_
#5879863
1%tr_c_5_
#5933916
1%tc_p_a
#5933942
0%tr_c_6_
#5933967
0%tr_c_0_
#5934126
0%tr_c_5_
#5983265
0%tr_c_2_
#5983401
0%tc_p_a
#6033406
1%tr_c_6_
#6033441
1%tr_c_4_
#6033551
1%tr_c_1_
#6037466
1%tr_c_2_
#6037494
1%tc_p_a
#6037495
0%tr_c_4_
#6037497
0%tr_c_6_
#6037509
0%tr_c_1_
#6039171
0%tr_c_2_
#6043167
0%tc_p_a
#6131777
1%tr_c_0_
#6132353
1%tr_c_5_
#6155419
1%tr_c_3_
#6176728
1%tr_c_6_
#6184813
1%tc_p_a
#6185116
0%tr_c_0_
#6185149
0%tr_c_3_
#6217621
0%tr_c_5_
#6241508
0%tr_c_6_
#6304167
0%tc_p_a
#6317351
1%tr_c_6_
1%tr_c_3_
#6317453
1%tr_c_0_
#6318211
1%tr_c_5_
#6318215
1%tc_p_a
#6318216
0%tr_c_5_
#6318245
0%tr_c_6_
#6327164
0%tr_c_0_
#6328968
0%tr_c_3_
#6334608
0%tc_p_a
#6426360
1%tr_c_7_
#6426393
1%tr_c_3_
#6427307
1%tr_c_5_
#6432231
1%tr_c_0_
#6432332
1%tc_p_a
#6432334
0%tr_c_7_
#6432358
0%tr_c_5_
#6432858
0%tr_c_0_
#6434632
0%tr_c_3_
#6434633
0%tc_p_a
#6594225
1%tr_c_6_
#6594271
1%tr_c_3_
#6594281
1%tr_c_4_
#6594374
1%tr_c_0_
#6628457
1%tc_p_a
#6628468
0%tr_c_4_
#6628544
0%tr_c_6_
#6628801
0%tr_c_0_
#6628869
0%tr_c_3_
#6628870
0%tc_p_a
#6702777
1%tr_c_6_
#6702813
1%tr_c_0_
#6710616
1%tr_c_3_
#6742308
1%tr_c_4_
#6743161
1%tc_p_a
#6743163
0%tr_c_6_
#6743164
0%tr_c_0_
#6744199
0%tr_c_4_
#6746263
0%tr_c_3_
#6746270
0%tc_p_a
#6769353
1%tr_c_1_
#6770970
1%tr_c_6_
#6780367
1%tr_c_3_
#6822692
1%tr_c_4_
#6831703
1%tc_p_a
#6831772
0%tr_c_3_
#6831969
0%tr_c_1_
#6833656
0%tr_c_6_
#6874015
0%tr_c_4_
#6874030
0%tc_p_a
#6889559
1%tr_c_1_
#6889723
1%tr_c_5_
#6912340
1%tr_c_3_
#6924576
1%tr_c_7_
#6925965
1%tc_p_a
#6925966
0%tr_c_1_
0%tr_c_5_
#6926081
0%tr_c_7_
#6939455
0%tr_c_3_
#6939615
0%tc_p_a
#7148990
1%tr_c_6_
#7149039
1%tr_c_1_
#7149757
1%tr_c_2_
#7155251
1%tr_c_5_
#7157011
1%tc_p_a
#7157034
0%tr_c_1_
#7157057
0%tr_c_6_
#7157281
0%tr_c_5_
#7157816
0%tr_c_2_
#7158012
0%tc_p_a
#7238051
1%tr_c_6_
#7238169
1%tr_c_2_
#7238889
1%tr_c_1_
#7240072
1%tr_c_4_
#7240145
1%tc_p_a
#7240146
0%tr_c_6_
#7240150
0%tr_c_1_
#7240216
0%tr_c_2_
#7243302
0%tr_c_4_
#7243321
0%tc_p_a
#7334256
1%tr_c_2_
#7334259
1%tr_c_0_
#7334321
1%tr_c_6_
#7336519
1%tr_c_4_
#7336777
1%tc_p_a
#7336791
0%tr_c_4_
#7336795
0%tr_c_2_
#7337256
0%tr_c_6_
#7337542
0%tr_c_0_
#7337633
0%tc_p_a
#7412998
1%tr_c_6_
#7413014
1%tr_c_1_
#7413198
1%tr_c_2_
#7419610
1%tr_c_5_
#7425515
1%tc_p_a
#7425523
0%tr_c_5_
#7425664
0%tr_c_6_
#7426420
0%tr_c_1_
#7435239
0%tr_c_2_
#7435240
0%tc_p_a
#7519365
1%tr_c_3_
#7519373
1%tr_c_6_
#7525023
1%tr_c_5_
#7541783
1%tr_c_0_
#7541788
1%tc_p_a
#7541789
0%tr_c_0_
#7541790
0%tr_c_5_
#7542098
0%tr_c_3_
#7543060
0%tr_c_6_
#7598234
0%tc_p_a
#7658172
1%tr_c_2_
#7658177
1%tr_c_5_
#7658252
1%tr_c_1_
#7686918
1%tr_c_7_
#7686932
1%tc_p_a
#7686933
0%tr_c_5_
#7686937
0%tr_c_1_
#7687407
0%tr_c_7_
#7736117
0%tr_c_2_
#7736118
0%tc_p_a
#7872359
1%tr_c_6_
#7872398
1%tr_c_4_
#7872414
1%tr_c_1_
#7872429
1%tr_c_3_
#7872573
1%tc_p_a
#7872582
0%tr_c_3_
#7872984
0%tr_c_1_
#7873910
0%tr_c_4_
#7885885
0%tr_c_6_
#7887728
0%tc_p_a
#7907213
1%tr_c_6_
#7907217
1%tr_c_5_
#7908087
1%tr_c_2_
#7962361
1%tr_c_0_
#7962424
1%tc_p_a
#7962434
0%tr_c_2_
#7962487
0%tr_c_5_
#7963686
0%tr_c_0_
#7965529
0%tr_c_6_
#7965540
0%tc_p_a
#7995711
1%tr_c_3_
#7996129
1%tr_c_0_
#7998874
1%tr_c_5_
#7999858
1%tr_c_6_
#7999859
1%tc_p_a
#7999869
0%tr_c_6_
#8000344
0%tr_c_3_
#8000360
0%tr_c_5_
#8006575
0%tr_c_0_
#8006603
0%tc_p_a
#8064162
1%tr_c_1_
#8064211
1%tr_c_6_
#8064278
1%tr_c_3_
#8064615
1%tr_c_5_
#8064628
1%tc_p_a
#8064648
0%tr_c_1_
#8064827
0%tr_c_5_
#8064894
0%tr_c_3_
#8095023
0%tr_c_6_
#8096796
0%tc_p_a
#8183686
1%tr_c_5_
#8183735
1%tr_c_6_
#8189110
1%tr_c_0_
#8196880
1%tr_c_3_
#8196887
1%tc_p_a
#8196890
0%tr_c_6_
#8196892
0%tr_c_3_
#8196898
0%tr_c_5_
#8197700
0%tr_c_0_
#8197701
0%tc_p_a
#8294723
1%tr_c_1_
#8294773
1%tr_c_6_
#8294788
1%tr_c_5_
#8294882
1%tr_c_3_
#8294907
1%tc_p_a
#8294909
0%tr_c_6_
#8294910
0%tr_c_5_
#8294925
0%tr_c_1_
#8316873
0%tr_c_3_
#8316920
0%tc_p_a
#8425304
1%tr_c_5_
#8425315
1%tr_c_1_
#8427689
1%tr_c_6_
#8443839
1%tr_c_3_
#8443867
1%tc_p_a
#8443869
0%tr_c_1_
#8443890
0%tr_c_6_
#8444424
0%tr_c_5_
#8475674
0%tr_c_3_
#8475754
0%tc_p_a
#8562640
1%tr_c_7_
#8563499
1%tr_c_1_
#8563858
1%tr_c_4_
#8577895
1%tr_c_3_
#8581126
1%tc_p_a
#8581130
0%tr_c_3_
#8581140
0%tr_c_7_
#8582513
0%tr_c_4_
#8582739
0%tr_c_1_
#8582941
0%tc_p_a
#8675423
1%tr_c_0_
#8676433
1%tr_c_3_
#8685563
1%tr_c_6_
#8725416
1%tr_c_4_
#8727174
1%tc_p_a
#8727195
0%tr_c_6_
#8727764
0%tr_c_3_
#8728651
0%tr_c_0_
#8729781
0%tr_c_4_
#8729917
0%tc_p_a
#8851380
1%tr_c_2_
#8851390
1%tr_c_6_
#8851658
1%tr_c_4_
#8883102
1%tr_c_0_
#8883132
1%tc_p_a
#8883133
0%tr_c_6_
#8883137
0%tr_c_4_
#8883213
0%tr_c_2_
#8891032
0%tr_c_0_
#8891062
0%tc_p_a
#8956529
1%tr_c_6_
#8958540
1%tr_c_2_
#8963397
1%tr_c_4_
#8998431
1%tr_c_0_
#9040466
1%tc_p_a
#9040598
0%tr_c_2_
#9043033
0%tr_c_6_
#9043931
0%tr_c_0_
#9044485
0%tr_c_4_
#9046647
0%tc_p_a
#9059574
1%tr_c_6_
#9059641
1%tr_c_0_
#9062456
1%tr_c_2_
#9096586
1%tr_c_4_
#9102632
1%tc_p_a
#9102642
0%tr_c_2_
#9102906
0%tr_c_0_
#9115154
0%tr_c_4_
#9157717
0%tr_c_6_
#9157727
0%tc_p_a
#9186842
1%tr_c_6_
#9186852
1%tr_c_3_
#9186862
1%tr_c_4_
#9186895
1%tr_c_0_
#9191430
1%tc_p_a
#9191434
0%tr_c_0_
#9191663
0%tr_c_4_
#9192274
0%tr_c_3_
#9203071
0%tr_c_6_
#9217708
0%tc_p_a
#9275346
1%tr_c_6_
#9275373
1%tr_c_1_
#9276764
1%tr_c_4_
#9330742
1%tr_c_3_
#9330754
1%tc_p_a
#9330756
0%tr_c_6_
#9330765
0%tr_c_4_
#9330767
0%tr_c_3_
#9330803
0%tr_c_1_
#9331926
0%tc_p_a
#9384358
1%tr_c_0_
#9384374
1%tr_c_6_
#9392277
1%tr_c_4_
#9395500
1%tr_c_3_
#9395520
1%tc_p_a
#9395661
0%tr_c_3_
#9396997
0%tr_c_4_
#9398354
0%tr_c_6_
#9399260
0%tr_c_0_
#9401636
0%tc_p_a
#9518990
1%tr_c_7_
1%tr_c_5_
#9519305
1%tr_c_0_
#9519378
1%tr_c_3_
#9519679
1%tc_p_a
#9519680
0%tr_c_0_
#9519710
0%tr_c_5_
#9519724
0%tr_c_3_
#9556366
0%tr_c_7_
#9556380
0%tc_p_a
#9721636
1%tr_c_7_
1%tr_c_5_
1%tr_c_0_
#9722385
1%tr_c_2_
#9722387
1%tc_p_a
#9722389
0%tr_c_7_
#9722391
0%tr_c_2_
#9722398
0%tr_c_0_
#9722878
0%tr_c_5_
#9722935
0%tc_p_a
#9864394
1%tr_c_1_
1%tr_c_4_
#9864398
1%tr_c_6_
#9866071
1%tr_c_2_
#9866075
1%tc_p_a
#9866079
0%tr_c_4_
#9866084
0%tr_c_2_
#9866120
0%tr_c_6_
#9872629
0%tr_c_1_
#9897336
0%tc_p_a
#9906935
1%tr_c_5_
#9906950
1%tr_c_6_
#9907078
1%tr_c_2_
#9910735
1%tr_c_1_
#9940907
1%tc_p_a
#9940965
0%tr_c_1_
#9941154
0%tr_c_6_
#9950447
0%tr_c_5_
#9994159
0%tr_c_2_
#9994362
0%tc_p_a
#10027049
1%tr_c_2_
#10027105
1%tr_c_5_
#10027164
1%tr_c_6_
#10027269
1%tr_c_1_
#10027270
1%tc_p_a
#10027272
0%tr_c_6_
#10027499
0%tr_c_2_
#10027615
0%tr_c_1_
#10031667
0%tr_c_5_
#10031671
0%tc_p_a
#10041175
1%tr_c_6_
#10041194
1%tr_c_0_
#10041924
1%tr_c_2_
#10044365
1%tr_c_5_
#10044489
1%tc_p_a
#10044937
0%tr_c_6_
#10044982
0%tr_c_2_
#10044989
0%tr_c_0_
#10065612
0%tr_c_5_
#10065614
0%tc_p_a
#10193570
1%tr_c_3_
#10197291
1%tr_c_7_
#10201286
1%tr_c_5_
#10204126
1%tr_c_0_
#10234352
1%tc_p_a
#10234355
0%tr_c_0_
#10237035
0%tr_c_3_
#10237574
0%tr_c_7_
#10242243
0%tr_c_5_
#10259688
0%tc_p_a
#10431586
1%tr_c_6_
#10431589
1%tr_c_3_
#10431745
1%tr_c_5_
#10433128
1%tr_c_0_
#10433236
1%tc_p_a
#10433237
0%tr_c_0_
#10433249
0%tr_c_3_
#10433252
0%tr_c_5_
#10433624
0%tr_c_6_
#10437531
0%tc_p_a
#10457402
1%tr_c_2_
#10457507
1%tr_c_6_
#10464013
1%tr_c_0_
#10475198
1%tr_c_4_
#10476025
1%tc_p_a
#10476163
0%tr_c_6_
#10476410
0%tr_c_2_
#10477629
0%tr_c_4_
#10488045
0%tr_c_0_
#10488048
0%tc_p_a
#10617403
1%tr_c_1_
#10617490
1%tr_c_3_
#10617523
1%tr_c_6_
#10630325
1%tr_c_4_
#10646213
1%tc_p_a
#10646214
0%tr_c_3_
#10646307
0%tr_c_4_
#10647652
0%tr_c_6_
#10656948
0%tr_c_1_
#10660530
0%tc_p_a
#10713000
1%tr_c_6_
#10713140
1%tr_c_3_
#10713193
1%tr_c_0_
#10714719
1%tr_c_4_
#10714752
1%tc_p_a
#10714753
0%tr_c_6_
#10714768
0%tr_c_4_
#10714773
0%tr_c_0_
#10714901
0%tr_c_3_
#10714904
0%tc_p_a
#10776864
1%tr_c_2_
#10776908
1%tr_c_4_
#10782322
1%tr_c_6_
#10831660
1%tr_c_0_
#10831664
1%tc_p_a
#10831830
0%tr_c_4_
#10831847
0%tr_c_2_
#10833705
0%tr_c_6_
#10834823
0%tr_c_0_
#10835087
0%tc_p_a
#10850070
1%tr_c_2_
#10850088
1%tr_c_5_
#10850135
1%tr_c_6_
#10889120
1%tr_c_0_
#10889124
1%tc_p_a
#10889128
0%tr_c_5_
#10889139
0%tr_c_6_
#10889158
0%tr_c_2_
#10889174
0%tr_c_0_
#10889381
0%tc_p_a
#10986110
1%tr_c_4_
#10986111
1%tr_c_7_
#10987396
1%tr_c_1_
#10992996
1%tr_c_2_
#10996649
1%tc_p_a
#10996650
0%tr_c_4_
#10996674
0%tr_c_7_
#11011198
0%tr_c_1_
#11017244
0%tr_c_2_
#11017274
0%tc_p_a
#11257491
1%tr_c_3_
#11257523
1%tr_c_1_
#11258227
1%tr_c_5_
#11278615
1%tr_c_6_
#11296885
1%tc_p_a
#11296895
0%tr_c_1_
#11296992
0%tr_c_3_
#11298646
0%tr_c_5_
#11308301
0%tr_c_6_
#11308302
0%tc_p_a
#11332172
1%tr_c_5_
#11333484
1%tr_c_1_
#11339629
1%tr_c_6_
#11385221
1%tr_c_3_
#11385267
1%tc_p_a
#11385281
0%tr_c_5_
#11385327
0%tr_c_3_
0%tr_c_1_
#11388330
0%tr_c_6_
#11388361
0%tc_p_a
#11447084
1%tr_c_2_
#11447109
1%tr_c_5_
#11447111
1%tr_c_6_
#11453281
1%tr_c_1_
#11453336
1%tc_p_a
#11453795
0%tr_c_2_
#11454858
0%tr_c_6_
#11457357
0%tr_c_1_
#11489978
0%tr_c_5_
#11490021
0%tc_p_a
#11492475
1%tr_c_6_
#11497066
1%tr_c_1_
#11500106
1%tr_c_2_
#11543957
1%tr_c_5_
#11543963
1%tc_p_a
#11543975
0%tr_c_6_
#11543998
0%tr_c_1_
#11544342
0%tr_c_5_
#11545266
0%tr_c_2_
#11545349
0%tc_p_a
#11549131
1%tr_c_3_
#11555707
1%tr_c_0_
#11571473
1%tr_c_6_
#11583465
1%tr_c_5_
#11597767
1%tc_p_a
#11597768
0%tr_c_6_
#11597780
0%tr_c_0_
#11597782
0%tr_c_3_
#11597818
0%tr_c_5_
#11598144
0%tc_p_a
#11650079
1%tr_c_5_
#11650120
1%tr_c_6_
#11650139
1%tr_c_2_
#11650155
1%tr_c_1_
#11650223
1%tc_p_a
#11650224
0%tr_c_6_
#11650229
0%tr_c_2_
#11650347
0%tr_c_5_
#11657282
0%tr_c_1_
#11672136
0%tc_p_a
#11701774
1%tr_c_6_
#11702104
1%tr_c_5_
#11731471
1%tr_c_2_
#11751305
1%tr_c_0_
#11753046
1%tc_p_a
#11753048
0%tr_c_0_
#11753105
0%tr_c_5_
#11754954
0%tr_c_2_
#11796236
0%tr_c_6_
#11796459
0%tc_p_a
#11865577
1%tr_c_5_
#11865646
1%tr_c_2_
#11870005
1%tr_c_7_
#11882785
1%tr_c_1_
#11882880
1%tc_p_a
#11882895
0%tr_c_2_
#11885989
0%tr_c_7_
#11904387
0%tr_c_5_
#11943860
0%tr_c_1_
#11943861
0%tc_p_a
#11973091
1%tr_c_0_
#11975827
1%tr_c_4_
#12012968
1%tr_c_2_
#12032455
1%tr_c_6_
#12045373
1%tc_p_a
#12045383
0%tr_c_4_
#12045580
0%tr_c_0_
#12063533
0%tr_c_6_
#12082754
0%tr_c_2_
#12086695
0%tc_p_a
#12180530
1%tr_c_2_
#12180533
1%tr_c_6_
#12189695
1%tr_c_5_
#12193127
1%tr_c_1_
#12193151
1%tc_p_a
#12193155
0%tr_c_2_
#12193177
0%tr_c_1_
#12193450
0%tr_c_6_
#12193880
0%tr_c_5_
#12197894
0%tc_p_a
#12238261
1%tr_c_3_
#12240479
1%tr_c_0_
#12240846
1%tr_c_4_
#12243378
1%tr_c_6_
#12243593
1%tc_p_a
#12243594
0%tr_c_4_
#12243674
0%tr_c_3_
#12246880
0%tr_c_0_
#12250610
0%tr_c_6_
#12250613
0%tc_p_a
#12254983
1%tr_c_0_
#12254995
1%tr_c_6_
#12255442
1%tr_c_4_
#12301191
1%tr_c_3_
#12301195
1%tc_p_a
#12301271
0%tr_c_0_
#12301301
0%tr_c_3_
#12314835
0%tr_c_6_
#12326464
0%tr_c_4_
#12373032
0%tc_p_a
#12388708
1%tr_c_6_
#12388709
1%tr_c_0_
1%tr_c_4_
#12388932
1%tr_c_2_
#12388995
1%tc_p_a
