ctlhtest0.vcd
$comment
Auto-generated from ctlhtest0.log.
$end
$timescale 1ps $end
$scope module _test_ctlhtest0 $end
$var wire 1 %ch_l_r ch.l_r $end
$var wire 1 %tch_r_a tch.r_a $end
$var wire 1 %tch_l_r tch.l_r $end
$var wire 1 %ch_r_a ch.r_a $end
$var wire 1 %ch_p_0 ch.p_0 $end
$var wire 1 %tch_p_t tch.p_t $end
$var wire 1 %ch_p_1 ch.p_1 $end
$upscope $end
$enddefinitions $end
$dumpvars
0%ch_l_r
0%tch_r_a
0%tch_l_r
0%ch_r_a
0%ch_p_0
0%tch_p_t
0%ch_p_1
$end
#41
1%ch_l_r
#7133
1%tch_r_a
#17600
1%tch_l_r
#17602
1%ch_r_a
#22355
0%tch_l_r
#23492
0%ch_l_r
#23606
0%tch_r_a
#88972
0%ch_r_a
#90698
1%ch_p_0
#90737
1%tch_p_t
#90752
0%ch_p_0
#91243
0%tch_p_t
#91256
1%ch_l_r
#91296
1%tch_r_a
#91711
1%tch_l_r
#91731
1%ch_r_a
#97792
0%tch_l_r
#97839
0%ch_l_r
#97855
0%tch_r_a
#141953
0%ch_r_a
#155677
1%ch_p_1
#155681
1%tch_p_t
#164810
0%ch_p_1
#164825
0%tch_p_t
#208073
1%ch_l_r
#245004
1%tch_r_a
#245059
1%tch_l_r
#296712
1%ch_r_a
#326492
0%tch_l_r
#340341
0%ch_l_r
#365153
0%tch_r_a
#379496
0%ch_r_a
#379918
1%ch_p_0
#428632
1%tch_p_t
#428633
0%ch_p_0
#428634
0%tch_p_t
#448839
1%ch_l_r
#449121
1%tch_r_a
#449889
1%tch_l_r
#449892
1%ch_r_a
#472333
0%tch_l_r
#472884
0%ch_l_r
#473955
0%tch_r_a
#474909
0%ch_r_a
#475990
1%ch_p_1
#530460
1%tch_p_t
#531442
0%ch_p_1
#531460
0%tch_p_t
#535473
1%ch_l_r
#539476
1%tch_r_a
#584377
1%tch_l_r
#605961
1%ch_r_a
#610721
0%tch_l_r
#611223
0%ch_l_r
#611426
0%tch_r_a
#613280
0%ch_r_a
#613419
1%ch_p_0
#649765
1%tch_p_t
#649834
0%ch_p_0
#649845
0%tch_p_t
#701631
1%ch_l_r
#701835
1%tch_r_a
#701850
1%tch_l_r
#701851
1%ch_r_a
#701888
0%tch_l_r
#702627
0%ch_l_r
#702739
0%tch_r_a
#750251
0%ch_r_a
#750291
1%ch_p_1
#750548
1%tch_p_t
#750635
0%ch_p_1
#750929
0%tch_p_t
#750930
1%ch_l_r
#752736
1%tch_r_a
#754743
1%tch_l_r
#755952
1%ch_r_a
#756542
0%tch_l_r
#756720
0%ch_l_r
#757523
0%tch_r_a
#757687
0%ch_r_a
#759882
1%ch_p_0
#759904
1%tch_p_t
#760751
0%ch_p_0
#790879
0%tch_p_t
#791012
1%ch_l_r
#806674
1%tch_r_a
#807033
1%tch_l_r
#821149
1%ch_r_a
#821370
0%tch_l_r
#821377
0%ch_l_r
#821407
0%tch_r_a
#828120
0%ch_r_a
#885581
1%ch_p_1
#885672
1%tch_p_t
#887861
0%ch_p_1
#887868
0%tch_p_t
#890655
1%ch_l_r
#890761
1%tch_r_a
#890839
1%tch_l_r
#891114
1%ch_r_a
#910110
0%tch_l_r
#910565
0%ch_l_r
#910577
0%tch_r_a
#910981
0%ch_r_a
#910993
1%ch_p_0
#916909
1%tch_p_t
#921185
0%ch_p_0
#924084
0%tch_p_t
#928379
1%ch_l_r
#928381
1%tch_r_a
#932916
1%tch_l_r
#934165
1%ch_r_a
#937664
0%tch_l_r
#937830
0%ch_l_r
#937905
0%tch_r_a
#938250
0%ch_r_a
#938388
1%ch_p_1
#943651
1%tch_p_t
#943653
0%ch_p_1
#987570
0%tch_p_t
#987571
1%ch_l_r
#988119
1%tch_r_a
#988130
1%tch_l_r
#988500
1%ch_r_a
#988567
0%tch_l_r
#991208
0%ch_l_r
#991224
0%tch_r_a
#995786
0%ch_r_a
#996314
1%ch_p_0
#998749
1%tch_p_t
#1025629
0%ch_p_0
#1049554
0%tch_p_t
#1062595
1%ch_l_r
#1062597
1%tch_r_a
#1123555
1%tch_l_r
#1123558
1%ch_r_a
#1123587
0%tch_l_r
#1123904
0%ch_l_r
#1125505
0%tch_r_a
#1125658
0%ch_r_a
#1125702
1%ch_p_1
#1128463
1%tch_p_t
#1142146
0%ch_p_1
#1142147
0%tch_p_t
#1142364
1%ch_l_r
#1142386
1%tch_r_a
#1142387
1%tch_l_r
#1143968
1%ch_r_a
#1153313
0%tch_l_r
#1153472
0%ch_l_r
#1173148
0%tch_r_a
#1174435
0%ch_r_a
#1176667
1%ch_p_0
#1176812
1%tch_p_t
#1179644
0%ch_p_0
#1185998
0%tch_p_t
#1185999
1%ch_l_r
#1225283
1%tch_r_a
#1225445
1%tch_l_r
#1232814
1%ch_r_a
#1232828
0%tch_l_r
#1232835
0%ch_l_r
#1232995
0%tch_r_a
#1254552
0%ch_r_a
#1254553
1%ch_p_1
#1254554
1%tch_p_t
#1254555
0%ch_p_1
#1256798
0%tch_p_t
#1256985
1%ch_l_r
#1256986
1%tch_r_a
#1261168
1%tch_l_r
#1295950
1%ch_r_a
#1295951
0%tch_l_r
#1296804
0%ch_l_r
#1296809
0%tch_r_a
#1297700
0%ch_r_a
#1297701
1%ch_p_0
#1297718
1%tch_p_t
#1300291
0%ch_p_0
#1308652
0%tch_p_t
#1308655
1%ch_l_r
#1309596
1%tch_r_a
#1368558
1%tch_l_r
#1368559
1%ch_r_a
#1368601
0%tch_l_r
#1371418
0%ch_l_r
#1385151
0%tch_r_a
#1385246
0%ch_r_a
#1385581
1%ch_p_1
#1385589
1%tch_p_t
#1385623
0%ch_p_1
#1399510
0%tch_p_t
#1400428
1%ch_l_r
#1400432
1%tch_r_a
#1446810
1%tch_l_r
#1449208
1%ch_r_a
#1452423
0%tch_l_r
#1499542
0%ch_l_r
#1499590
0%tch_r_a
#1499593
0%ch_r_a
#1499771
1%ch_p_0
#1520748
1%tch_p_t
#1532647
0%ch_p_0
#1538598
0%tch_p_t
#1578083
1%ch_l_r
#1578910
1%tch_r_a
#1579083
1%tch_l_r
#1579267
1%ch_r_a
#1579268
0%tch_l_r
#1579341
0%ch_l_r
#1579345
0%tch_r_a
#1616633
0%ch_r_a
#1616729
1%ch_p_1
#1616865
1%tch_p_t
#1616866
0%ch_p_1
#1635912
0%tch_p_t
#1636153
1%ch_l_r
#1640112
1%tch_r_a
#1640124
1%tch_l_r
#1644024
1%ch_r_a
#1645053
0%tch_l_r
#1645054
0%ch_l_r
#1645110
0%tch_r_a
#1690116
0%ch_r_a
#1690117
1%ch_p_0
#1690154
1%tch_p_t
#1713529
0%ch_p_0
#1713530
0%tch_p_t
#1717094
1%ch_l_r
#1718786
1%tch_r_a
#1718799
1%tch_l_r
#1735783
1%ch_r_a
#1736140
0%tch_l_r
#1736165
0%ch_l_r
#1736186
0%tch_r_a
#1736187
0%ch_r_a
#1745835
1%ch_p_1
#1745836
1%tch_p_t
#1745837
0%ch_p_1
#1745998
0%tch_p_t
#1747035
1%ch_l_r
#1747040
1%tch_r_a
#1747621
1%tch_l_r
#1748029
1%ch_r_a
#1748040
0%tch_l_r
#1749087
0%ch_l_r
#1749101
0%tch_r_a
#1749119
0%ch_r_a
#1749123
1%ch_p_0
#1749227
1%tch_p_t
#1780671
0%ch_p_0
#1781875
0%tch_p_t
#1790330
1%ch_l_r
#1790558
1%tch_r_a
#1791401
1%tch_l_r
#1792860
1%ch_r_a
#1792930
0%tch_l_r
#1843352
0%ch_l_r
#1843363
0%tch_r_a
#1843366
0%ch_r_a
#1843420
1%ch_p_1
#1844568
1%tch_p_t
#1845729
0%ch_p_1
#1854381
0%tch_p_t
#1854462
1%ch_l_r
#1865539
1%tch_r_a
#1883522
1%tch_l_r
#1883614
1%ch_r_a
#1891925
0%tch_l_r
#1893669
0%ch_l_r
#1894282
0%tch_r_a
#1908304
0%ch_r_a
#1908349
1%ch_p_0
#1909346
1%tch_p_t
#1910995
0%ch_p_0
#1911520
0%tch_p_t
#1912420
1%ch_l_r
#1912472
1%tch_r_a
#1912479
1%tch_l_r
#1928091
1%ch_r_a
#1934558
0%tch_l_r
#1934560
0%ch_l_r
#1934914
0%tch_r_a
#1935047
0%ch_r_a
#1935048
1%ch_p_1
#1935052
1%tch_p_t
#1935598
0%ch_p_1
#1981161
0%tch_p_t
#1981162
1%ch_l_r
#1993540
1%tch_r_a
#1993619
1%tch_l_r
#1996052
1%ch_r_a
#1996140
0%tch_l_r
#2003922
0%ch_l_r
#2032249
0%tch_r_a
#2032308
0%ch_r_a
#2032338
1%ch_p_0
#2033805
1%tch_p_t
#2093309
0%ch_p_0
#2112693
0%tch_p_t
#2113378
1%ch_l_r
#2130093
1%tch_r_a
#2130220
1%tch_l_r
#2130389
1%ch_r_a
#2130432
0%tch_l_r
#2130444
0%ch_l_r
#2131723
0%tch_r_a
#2131956
0%ch_r_a
#2131959
1%ch_p_1
#2131997
1%tch_p_t
#2131998
0%ch_p_1
#2144750
0%tch_p_t
#2144842
1%ch_l_r
#2147569
1%tch_r_a
#2147571
1%tch_l_r
#2147572
1%ch_r_a
#2149073
0%tch_l_r
#2149075
0%ch_l_r
#2149093
0%tch_r_a
#2149212
0%ch_r_a
#2154932
1%ch_p_0
#2154940
1%tch_p_t
#2154994
0%ch_p_0
#2205532
0%tch_p_t
#2205537
1%ch_l_r
#2206604
1%tch_r_a
#2206605
1%tch_l_r
#2206743
1%ch_r_a
#2206744
0%tch_l_r
#2206808
0%ch_l_r
#2206931
0%tch_r_a
#2206933
0%ch_r_a
#2206970
1%ch_p_1
#2207113
1%tch_p_t
#2207164
0%ch_p_1
#2207606
0%tch_p_t
#2207617
1%ch_l_r
#2207618
1%tch_r_a
#2207627
1%tch_l_r
#2207652
1%ch_r_a
#2217905
0%tch_l_r
#2221426
0%ch_l_r
#2221571
0%tch_r_a
#2237739
0%ch_r_a
#2237969
1%ch_p_0
#2238660
1%tch_p_t
#2238674
0%ch_p_0
#2240217
0%tch_p_t
#2241828
1%ch_l_r
#2259340
1%tch_r_a
#2259351
1%tch_l_r
#2259352
1%ch_r_a
#2259353
0%tch_l_r
#2265854
0%ch_l_r
#2266493
0%tch_r_a
#2268286
0%ch_r_a
#2268418
1%ch_p_1
#2268419
1%tch_p_t
#2268436
0%ch_p_1
#2268588
0%tch_p_t
#2271571
1%ch_l_r
#2271574
1%tch_r_a
#2271998
1%tch_l_r
#2272004
1%ch_r_a
#2274592
0%tch_l_r
#2277053
0%ch_l_r
#2277883
0%tch_r_a
#2300815
0%ch_r_a
#2300817
1%ch_p_0
#2301011
1%tch_p_t
#2301614
0%ch_p_0
#2301752
0%tch_p_t
#2301769
1%ch_l_r
#2301786
1%tch_r_a
#2302212
1%tch_l_r
#2302213
1%ch_r_a
#2302214
0%tch_l_r
#2303240
0%ch_l_r
#2303241
0%tch_r_a
#2303260
0%ch_r_a
#2303428
1%ch_p_1
#2303967
1%tch_p_t
#2304128
0%ch_p_1
#2304301
0%tch_p_t
#2306848
1%ch_l_r
#2321909
1%tch_r_a
#2321910
1%tch_l_r
#2321911
1%ch_r_a
#2322301
0%tch_l_r
#2322508
0%ch_l_r
#2323341
0%tch_r_a
#2323369
0%ch_r_a
#2323376
1%ch_p_0
#2323790
1%tch_p_t
#2323794
0%ch_p_0
#2325573
0%tch_p_t
#2348447
1%ch_l_r
#2348613
1%tch_r_a
#2388483
1%tch_l_r
#2397128
1%ch_r_a
#2398061
0%tch_l_r
#2398917
0%ch_l_r
#2399056
0%tch_r_a
#2425265
0%ch_r_a
#2425460
1%ch_p_1
#2425462
1%tch_p_t
#2478911
0%ch_p_1
#2478917
0%tch_p_t
#2479171
1%ch_l_r
#2479179
1%tch_r_a
#2479180
1%tch_l_r
#2479186
1%ch_r_a
#2530222
0%tch_l_r
#2533312
0%ch_l_r
#2533538
0%tch_r_a
#2534357
0%ch_r_a
#2534358
1%ch_p_0
#2534364
1%tch_p_t
#2534366
0%ch_p_0
#2537928
0%tch_p_t
#2537943
1%ch_l_r
#2558744
1%tch_r_a
#2558851
1%tch_l_r
#2558944
1%ch_r_a
#2560596
0%tch_l_r
#2564535
0%ch_l_r
#2565293
0%tch_r_a
#2567916
0%ch_r_a
#2568632
1%ch_p_1
#2568633
1%tch_p_t
#2570373
0%ch_p_1
#2570374
0%tch_p_t
#2582526
1%ch_l_r
#2610725
1%tch_r_a
#2610726
1%tch_l_r
#2610732
1%ch_r_a
#2610733
0%tch_l_r
#2650222
0%ch_l_r
#2671821
0%tch_r_a
#2671843
0%ch_r_a
#2694351
1%ch_p_0
#2694358
1%tch_p_t
#2694423
0%ch_p_0
#2694436
0%tch_p_t
#2695560
1%ch_l_r
#2695664
1%tch_r_a
#2695705
1%tch_l_r
#2695706
1%ch_r_a
#2695707
0%tch_l_r
#2760085
0%ch_l_r
#2773257
0%tch_r_a
#2773258
0%ch_r_a
#2793083
1%ch_p_1
#2796219
1%tch_p_t
#2797045
0%ch_p_1
#2798878
0%tch_p_t
#2815426
1%ch_l_r
#2815484
1%tch_r_a
#2817927
1%tch_l_r
#2834700
1%ch_r_a
#2871899
0%tch_l_r
#2871913
0%ch_l_r
#2872269
0%tch_r_a
#2908107
0%ch_r_a
#2908212
1%ch_p_0
#2908321
1%tch_p_t
#2908322
0%ch_p_0
#2908331
0%tch_p_t
#2946284
1%ch_l_r
#2946285
1%tch_r_a
#2982679
1%tch_l_r
#2982680
1%ch_r_a
#2985769
0%tch_l_r
#3034495
0%ch_l_r
#3035245
0%tch_r_a
#3042000
0%ch_r_a
#3042051
1%ch_p_1
#3042061
1%tch_p_t
#3042381
0%ch_p_1
#3049963
0%tch_p_t
#3049964
1%ch_l_r
#3049965
1%tch_r_a
#3051695
1%tch_l_r
#3053382
1%ch_r_a
#3053397
0%tch_l_r
#3077671
0%ch_l_r
#3078125
0%tch_r_a
#3078441
0%ch_r_a
#3078442
1%ch_p_0
#3078825
1%tch_p_t
#3086288
0%ch_p_0
#3086308
0%tch_p_t
#3087631
1%ch_l_r
#3087718
1%tch_r_a
#3094440
1%tch_l_r
#3094452
1%ch_r_a
#3094597
0%tch_l_r
#3095498
0%ch_l_r
#3096847
0%tch_r_a
#3097066
0%ch_r_a
#3105397
1%ch_p_1
#3136978
1%tch_p_t
#3136996
0%ch_p_1
#3139190
0%tch_p_t
#3177162
1%ch_l_r
#3177282
1%tch_r_a
#3183597
1%tch_l_r
#3185661
1%ch_r_a
#3186253
0%tch_l_r
#3186260
0%ch_l_r
#3186261
0%tch_r_a
#3186385
0%ch_r_a
#3192315
1%ch_p_0
#3193367
1%tch_p_t
#3193727
0%ch_p_0
#3203921
0%tch_p_t
#3205018
1%ch_l_r
#3224910
1%tch_r_a
#3224914
1%tch_l_r
#3236578
1%ch_r_a
#3274497
0%tch_l_r
#3292158
0%ch_l_r
#3295539
0%tch_r_a
#3295795
0%ch_r_a
#3310725
1%ch_p_1
#3310762
1%tch_p_t
#3310774
0%ch_p_1
#3310783
0%tch_p_t
#3311210
1%ch_l_r
#3311452
1%tch_r_a
#3312287
1%tch_l_r
#3359023
1%ch_r_a
#3360583
0%tch_l_r
#3397676
0%ch_l_r
#3397936
0%tch_r_a
#3406924
0%ch_r_a
#3406925
1%ch_p_0
#3442975
1%tch_p_t
#3443359
0%ch_p_0
#3443378
0%tch_p_t
#3443387
1%ch_l_r
#3465341
1%tch_r_a
#3465529
1%tch_l_r
#3511305
1%ch_r_a
#3514905
0%tch_l_r
#3515053
0%ch_l_r
#3533930
0%tch_r_a
#3533945
0%ch_r_a
#3544554
1%ch_p_1
#3545441
1%tch_p_t
#3553423
0%ch_p_1
#3553424
0%tch_p_t
#3560150
1%ch_l_r
#3560515
1%tch_r_a
#3569473
1%tch_l_r
#3570857
1%ch_r_a
#3570878
0%tch_l_r
#3570919
0%ch_l_r
#3570922
0%tch_r_a
#3572799
0%ch_r_a
#3582308
1%ch_p_0
#3582890
1%tch_p_t
#3582892
0%ch_p_0
#3582895
0%tch_p_t
#3582896
1%ch_l_r
#3586348
1%tch_r_a
#3593481
1%tch_l_r
#3594341
1%ch_r_a
#3594342
0%tch_l_r
#3594417
0%ch_l_r
#3622368
0%tch_r_a
#3622442
0%ch_r_a
#3624712
1%ch_p_1
#3624810
1%tch_p_t
#3630581
0%ch_p_1
#3662309
0%tch_p_t
#3666162
1%ch_l_r
#3672303
1%tch_r_a
#3674663
1%tch_l_r
#3674667
1%ch_r_a
#3674672
0%tch_l_r
#3674963
0%ch_l_r
#3675057
0%tch_r_a
#3675058
0%ch_r_a
#3675094
1%ch_p_0
#3675096
1%tch_p_t
#3696914
0%ch_p_0
#3696950
0%tch_p_t
#3696951
1%ch_l_r
#3696965
1%tch_r_a
#3696977
1%tch_l_r
#3721008
1%ch_r_a
#3742565
0%tch_l_r
#3755555
0%ch_l_r
#3767453
0%tch_r_a
#3810403
0%ch_r_a
#3810404
1%ch_p_1
#3810616
1%tch_p_t
#3818028
0%ch_p_1
#3820961
0%tch_p_t
#3821100
1%ch_l_r
#3821104
1%tch_r_a
#3821459
1%tch_l_r
#3821537
1%ch_r_a
#3859742
0%tch_l_r
#3859768
0%ch_l_r
#3860032
0%tch_r_a
#3860093
0%ch_r_a
#3860098
1%ch_p_0
#3860170
1%tch_p_t
#3860281
0%ch_p_0
#3860300
0%tch_p_t
#3860399
1%ch_l_r
#3860766
1%tch_r_a
#3860815
1%tch_l_r
#3860850
1%ch_r_a
#3867027
0%tch_l_r
#3871851
0%ch_l_r
#3871879
0%tch_r_a
#3872866
0%ch_r_a
#3893369
1%ch_p_1
#3893429
1%tch_p_t
#3902999
0%ch_p_1
#3905102
0%tch_p_t
#3922810
1%ch_l_r
#3933727
1%tch_r_a
#3933728
1%tch_l_r
#3959469
1%ch_r_a
#3959472
0%tch_l_r
#3978136
0%ch_l_r
#3979605
0%tch_r_a
#3979635
0%ch_r_a
#3979641
1%ch_p_0
#3979642
1%tch_p_t
#3979769
0%ch_p_0
#3979772
0%tch_p_t
#3979858
1%ch_l_r
#3980790
1%tch_r_a
#3982283
1%tch_l_r
#3991006
1%ch_r_a
#4005359
0%tch_l_r
#4005633
0%ch_l_r
#4005634
0%tch_r_a
#4013785
0%ch_r_a
#4033630
1%ch_p_1
#4033632
1%tch_p_t
#4033991
0%ch_p_1
#4036007
0%tch_p_t
#4060518
1%ch_l_r
#4060520
1%tch_r_a
#4074951
1%tch_l_r
#4074954
1%ch_r_a
#4112243
0%tch_l_r
#4112587
0%ch_l_r
#4114370
0%tch_r_a
#4114399
0%ch_r_a
#4114470
1%ch_p_0
#4114832
1%tch_p_t
#4114915
0%ch_p_0
#4163077
0%tch_p_t
#4163184
1%ch_l_r
#4163187
1%tch_r_a
#4163188
1%tch_l_r
#4163189
1%ch_r_a
#4167534
0%tch_l_r
#4168392
0%ch_l_r
#4168404
0%tch_r_a
#4204833
0%ch_r_a
#4255802
1%ch_p_1
#4289148
1%tch_p_t
#4294129
0%ch_p_1
#4294157
0%tch_p_t
#4294165
1%ch_l_r
#4315520
1%tch_r_a
#4349851
1%tch_l_r
#4350116
1%ch_r_a
#4350195
0%tch_l_r
#4350203
0%ch_l_r
#4350244
0%tch_r_a
#4350883
0%ch_r_a
#4384438
1%ch_p_0
#4384455
1%tch_p_t
#4408733
0%ch_p_0
#4453952
0%tch_p_t
#4475564
1%ch_l_r
#4475565
1%tch_r_a
#4475566
1%tch_l_r
#4475992
1%ch_r_a
#4476330
0%tch_l_r
#4476456
0%ch_l_r
#4476458
0%tch_r_a
#4477268
0%ch_r_a
#4477428
1%ch_p_1
#4505259
1%tch_p_t
#4567692
0%ch_p_1
#4567693
0%tch_p_t
#4567698
1%ch_l_r
#4568268
1%tch_r_a
#4626884
1%tch_l_r
#4629016
1%ch_r_a
#4629018
0%tch_l_r
#4629056
0%ch_l_r
#4641378
0%tch_r_a
#4641435
0%ch_r_a
#4641436
1%ch_p_0
#4650156
1%tch_p_t
#4650160
0%ch_p_0
#4650706
0%tch_p_t
#4650717
1%ch_l_r
#4650729
1%tch_r_a
#4652412
1%tch_l_r
#4680580
1%ch_r_a
#4681448
0%tch_l_r
#4697896
0%ch_l_r
#4697916
0%tch_r_a
#4700556
0%ch_r_a
#4729264
1%ch_p_1
#4731693
1%tch_p_t
#4734569
0%ch_p_1
#4736703
0%tch_p_t
#4761666
1%ch_l_r
#4762157
1%tch_r_a
#4790367
1%tch_l_r
#4796328
1%ch_r_a
#4796350
0%tch_l_r
#4796476
0%ch_l_r
#4796494
0%tch_r_a
#4796495
0%ch_r_a
#4819333
1%ch_p_0
#4819387
1%tch_p_t
#4819413
0%ch_p_0
#4822046
0%tch_p_t
#4824318
1%ch_l_r
#4824370
1%tch_r_a
#4824478
1%tch_l_r
#4824479
1%ch_r_a
#4828779
0%tch_l_r
#4828780
0%ch_l_r
#4828781
0%tch_r_a
#4832094
0%ch_r_a
#4832100
1%ch_p_1
#4832104
1%tch_p_t
#4859123
0%ch_p_1
#4859125
0%tch_p_t
#4859129
1%ch_l_r
#4859130
1%tch_r_a
#4859155
1%tch_l_r
#4859330
1%ch_r_a
#4861705
0%tch_l_r
#4874817
0%ch_l_r
#4913111
0%tch_r_a
#4913460
0%ch_r_a
#4915001
1%ch_p_0
#4915085
1%tch_p_t
#4915086
0%ch_p_0
#4969879
0%tch_p_t
#4970024
1%ch_l_r
#4970085
1%tch_r_a
#5017222
1%tch_l_r
#5017230
1%ch_r_a
#5056205
0%tch_l_r
#5069756
0%ch_l_r
#5069768
0%tch_r_a
#5082475
0%ch_r_a
#5082482
1%ch_p_1
#5082483
1%tch_p_t
#5082763
0%ch_p_1
#5096850
0%tch_p_t
#5096857
1%ch_l_r
#5101117
1%tch_r_a
#5104616
1%tch_l_r
#5104625
1%ch_r_a
#5105183
0%tch_l_r
#5105270
0%ch_l_r
#5160655
0%tch_r_a
#5160656
0%ch_r_a
#5160693
1%ch_p_0
#5160858
1%tch_p_t
#5167870
0%ch_p_0
#5178025
0%tch_p_t
#5178109
1%ch_l_r
#5178137
1%tch_r_a
#5178451
1%tch_l_r
#5178494
1%ch_r_a
#5178564
0%tch_l_r
#5224157
0%ch_l_r
#5224158
0%tch_r_a
#5224164
0%ch_r_a
#5224165
1%ch_p_1
#5250768
1%tch_p_t
#5254648
0%ch_p_1
#5254650
0%tch_p_t
#5261947
1%ch_l_r
#5262074
1%tch_r_a
#5262144
1%tch_l_r
#5262315
1%ch_r_a
#5262625
0%tch_l_r
#5262626
0%ch_l_r
#5263652
0%tch_r_a
#5278197
0%ch_r_a
#5281495
1%ch_p_0
#5287045
1%tch_p_t
#5287415
0%ch_p_0
#5290851
0%tch_p_t
#5290857
1%ch_l_r
#5318575
1%tch_r_a
#5318591
1%tch_l_r
#5318601
1%ch_r_a
#5318650
0%tch_l_r
#5318657
0%ch_l_r
#5318659
0%tch_r_a
#5341135
0%ch_r_a
#5343595
1%ch_p_1
#5343653
1%tch_p_t
#5345747
0%ch_p_1
#5372178
0%tch_p_t
#5372185
1%ch_l_r
#5376859
1%tch_r_a
#5376901
1%tch_l_r
#5387371
1%ch_r_a
#5387644
0%tch_l_r
#5392623
0%ch_l_r
#5396203
0%tch_r_a
#5434261
0%ch_r_a
#5434389
1%ch_p_0
#5487466
1%tch_p_t
#5497428
0%ch_p_0
#5497507
0%tch_p_t
#5497508
1%ch_l_r
#5497613
1%tch_r_a
#5504159
1%tch_l_r
#5504813
1%ch_r_a
#5504823
0%tch_l_r
#5504867
0%ch_l_r
#5505003
0%tch_r_a
#5505326
0%ch_r_a
#5505364
1%ch_p_1
#5505368
1%tch_p_t
#5506461
0%ch_p_1
#5506588
0%tch_p_t
#5556304
1%ch_l_r
#5576383
1%tch_r_a
#5576384
1%tch_l_r
#5576405
1%ch_r_a
#5582266
0%tch_l_r
#5596660
0%ch_l_r
#5596672
0%tch_r_a
#5597074
0%ch_r_a
#5599720
1%ch_p_0
#5606023
1%tch_p_t
#5606305
0%ch_p_0
#5637044
0%tch_p_t
#5701199
1%ch_l_r
#5701201
1%tch_r_a
#5701916
1%tch_l_r
#5701999
1%ch_r_a
#5702047
0%tch_l_r
#5717111
0%ch_l_r
#5717115
0%tch_r_a
#5777208
0%ch_r_a
#5788874
1%ch_p_1
#5790323
1%tch_p_t
#5790679
0%ch_p_1
#5790680
0%tch_p_t
#5790681
1%ch_l_r
#5790689
1%tch_r_a
#5818318
1%tch_l_r
#5818343
1%ch_r_a
#5826144
0%tch_l_r
#5826145
0%ch_l_r
#5826406
0%tch_r_a
#5826410
0%ch_r_a
#5826524
1%ch_p_0
#5828546
1%tch_p_t
#5828547
0%ch_p_0
#5828548
0%tch_p_t
#5828579
1%ch_l_r
#5828581
1%tch_r_a
#5828684
1%tch_l_r
#5891644
1%ch_r_a
#5891645
0%tch_l_r
#5892094
0%ch_l_r
#5898298
0%tch_r_a
#5931705
0%ch_r_a
#5931706
1%ch_p_1
#5932917
1%tch_p_t
#5933070
0%ch_p_1
#5933955
0%tch_p_t
#5934311
1%ch_l_r
#5983855
1%tch_r_a
#5983972
1%tch_l_r
#5983974
1%ch_r_a
#5983982
0%tch_l_r
#5997766
0%ch_l_r
#6011268
0%tch_r_a
#6019908
0%ch_r_a
#6019909
1%ch_p_0
#6020876
1%tch_p_t
#6050016
0%ch_p_0
#6050037
0%tch_p_t
#6075888
1%ch_l_r
#6075889
1%tch_r_a
#6080742
1%tch_l_r
#6080762
1%ch_r_a
#6080913
0%tch_l_r
#6080921
0%ch_l_r
#6087148
0%tch_r_a
#6097968
0%ch_r_a
#6098161
1%ch_p_1
#6122706
1%tch_p_t
#6122707
0%ch_p_1
#6123258
0%tch_p_t
#6129988
1%ch_l_r
#6129989
1%tch_r_a
#6147848
1%tch_l_r
#6157882
1%ch_r_a
#6159474
0%tch_l_r
#6159901
0%ch_l_r
#6205808
0%tch_r_a
#6205822
0%ch_r_a
#6205987
1%ch_p_0
#6207907
1%tch_p_t
#6207922
0%ch_p_0
#6207923
0%tch_p_t
#6207924
1%ch_l_r
#6208671
1%tch_r_a
#6208696
1%tch_l_r
#6230140
1%ch_r_a
#6230729
0%tch_l_r
#6230770
0%ch_l_r
#6256135
0%tch_r_a
#6256142
0%ch_r_a
#6256299
1%ch_p_1
#6256300
1%tch_p_t
#6264696
0%ch_p_1
#6264705
0%tch_p_t
#6264728
1%ch_l_r
#6265288
1%tch_r_a
#6267381
1%tch_l_r
#6270109
1%ch_r_a
#6303909
0%tch_l_r
#6304656
0%ch_l_r
#6304682
0%tch_r_a
#6304683
0%ch_r_a
#6304684
1%ch_p_0
#6311764
1%tch_p_t
#6311765
0%ch_p_0
#6311766
0%tch_p_t
#6311897
1%ch_l_r
#6312220
1%tch_r_a
#6312240
1%tch_l_r
#6312413
1%ch_r_a
#6312416
0%tch_l_r
#6327653
0%ch_l_r
#6329830
0%tch_r_a
#6334096
0%ch_r_a
#6362229
1%ch_p_1
#6394060
1%tch_p_t
#6407944
0%ch_p_1
#6419035
0%tch_p_t
#6419389
1%ch_l_r
#6420286
1%tch_r_a
#6431578
1%tch_l_r
#6431596
1%ch_r_a
#6434877
0%tch_l_r
#6435144
0%ch_l_r
#6435564
0%tch_r_a
#6452680
0%ch_r_a
#6454381
1%ch_p_0
#6454485
1%tch_p_t
#6455030
0%ch_p_0
#6455052
0%tch_p_t
#6473398
1%ch_l_r
#6525084
1%tch_r_a
#6525085
1%tch_l_r
#6527670
1%ch_r_a
#6528081
0%tch_l_r
#6534703
0%ch_l_r
#6547333
0%tch_r_a
#6548757
0%ch_r_a
#6548852
1%ch_p_1
#6553213
1%tch_p_t
#6553214
0%ch_p_1
#6582719
0%tch_p_t
#6582720
1%ch_l_r
#6607749
1%tch_r_a
#6607791
1%tch_l_r
#6608019
1%ch_r_a
#6609282
0%tch_l_r
#6609412
0%ch_l_r
#6609413
0%tch_r_a
#6611146
0%ch_r_a
#6611162
1%ch_p_0
#6611170
1%tch_p_t
#6611175
0%ch_p_0
#6611185
0%tch_p_t
#6611574
1%ch_l_r
#6611666
1%tch_r_a
#6611713
1%tch_l_r
#6613574
1%ch_r_a
#6624722
0%tch_l_r
#6641929
0%ch_l_r
#6646233
0%tch_r_a
#6647566
0%ch_r_a
#6703914
1%ch_p_1
#6703975
1%tch_p_t
#6704181
0%ch_p_1
#6704225
0%tch_p_t
#6704242
1%ch_l_r
#6704632
1%tch_r_a
#6705829
1%tch_l_r
#6705830
1%ch_r_a
#6705833
0%tch_l_r
#6739961
0%ch_l_r
#6740014
0%tch_r_a
#6746681
0%ch_r_a
#6746685
1%ch_p_0
#6748901
1%tch_p_t
#6748920
0%ch_p_0
#6748923
0%tch_p_t
#6750605
1%ch_l_r
#6750611
1%tch_r_a
#6790677
1%tch_l_r
#6822110
1%ch_r_a
#6823093
0%tch_l_r
#6823142
0%ch_l_r
#6834819
0%tch_r_a
#6834837
0%ch_r_a
#6834843
1%ch_p_1
#6834848
1%tch_p_t
#6834850
0%ch_p_1
#6835188
0%tch_p_t
#6835558
1%ch_l_r
#6836164
1%tch_r_a
#6836165
1%tch_l_r
#6836251
1%ch_r_a
#6836354
0%tch_l_r
#6837106
0%ch_l_r
#6837214
0%tch_r_a
#6837227
0%ch_r_a
#6851547
1%ch_p_0
#6851548
1%tch_p_t
#6851549
0%ch_p_0
#6851555
0%tch_p_t
#6852851
1%ch_l_r
#6852869
1%tch_r_a
#6881173
1%tch_l_r
#6884207
1%ch_r_a
#6938976
0%tch_l_r
#6939681
0%ch_l_r
#6939682
0%tch_r_a
#6939683
0%ch_r_a
#6969306
1%ch_p_1
#6972150
1%tch_p_t
#6972151
0%ch_p_1
#6973627
0%tch_p_t
#7029756
1%ch_l_r
