mysim2.vcd
$comment
Auto-generated from mysim2.log.
$end
$timescale 1ps $end
$scope module _test_mymodule2 $end
$var wire 1 %n_cc_w_0_ n.cc.w_0_ $end
$var wire 1 %n_cc_i_0_ n.cc.i_0_ $end
$var wire 1 %n_cc_l_r n.cc.l_r $end
$var wire 1 %n_cc_i_t n.cc.i_t $end
$var wire 1 %n_left_p_a n.left.p_a $end
$var wire 1 %n_left_o_t n.left.o_t $end
$var wire 1 %n_cc_i_s n.cc.i_s $end
$var wire 1 %n_cc_w_s n.cc.w_s $end
$var wire 1 %n_cc_f_r n.cc.f_r $end
$var wire 1 %n_fine_p_a n.fine.p_a $end
$var wire 1 %n_fine_o_0_ n.fine.o_0_ $end
$var wire 1 %n_fine_o_t n.fine.o_t $end
$var wire 1 %n_cc_i_1_ n.cc.i_1_ $end
$var wire 1 %n_cc_w_1_ n.cc.w_1_ $end
$var wire 1 %n_cc_r_r n.cc.r_r $end
$var wire 1 %n_right_p_a n.right.p_a $end
$var wire 1 %n_right_o_0_ n.right.o_0_ $end
$var wire 1 %n_right_o_t n.right.o_t $end
$var wire 1 %n_left_o_1_ n.left.o_1_ $end
$var wire 1 %n_left_o_s n.left.o_s $end
$var wire 1 %n_right_o_1_ n.right.o_1_ $end
$var wire 1 %n_right_o_s n.right.o_s $end
$var wire 1 %n_fine_o_s n.fine.o_s $end
$var wire 1 %n_left_o_0_ n.left.o_0_ $end
$var wire 1 %n_fine_o_1_ n.fine.o_1_ $end
$upscope $end
$enddefinitions $end
$dumpvars
0%n_cc_w_0_
0%n_cc_i_0_
0%n_cc_l_r
0%n_cc_i_t
0%n_left_p_a
0%n_left_o_t
0%n_cc_i_s
0%n_cc_w_s
0%n_cc_f_r
0%n_fine_p_a
0%n_fine_o_0_
0%n_fine_o_t
0%n_cc_i_1_
0%n_cc_w_1_
0%n_cc_r_r
0%n_right_p_a
0%n_right_o_0_
0%n_right_o_t
0%n_left_o_1_
0%n_left_o_s
0%n_right_o_1_
0%n_right_o_s
0%n_fine_o_s
0%n_left_o_0_
0%n_fine_o_1_
$end
#90
1%n_cc_w_0_
#7185
0%n_cc_i_0_
#15425
1%n_cc_l_r
#18213
1%n_cc_i_t
#80804
1%n_left_p_a
#80844
0%n_cc_w_0_
#81259
0%n_cc_l_r
#81279
1%n_left_o_t
#131501
0%n_cc_i_t
#145225
0%n_left_o_t
#211455
0%n_left_p_a
#242957
1%n_cc_i_s
#257300
1%n_cc_w_s
#306437
0%n_cc_i_s
#327410
1%n_cc_f_r
#329562
1%n_fine_p_a
#349368
1%n_cc_i_0_
#403838
1%n_fine_o_0_
#412854
0%n_cc_i_0_
#457755
0%n_fine_o_0_
#486658
1%n_cc_i_t
#486727
0%n_cc_w_s
#486738
0%n_cc_f_r
#538524
1%n_fine_o_t
#538781
0%n_cc_i_t
#539520
0%n_fine_o_t
#587272
1%n_cc_i_1_
#589207
0%n_fine_p_a
#591006
1%n_cc_w_1_
#594182
0%n_cc_i_1_
#610846
1%n_cc_i_0_
#624332
1%n_cc_r_r
#624560
1%n_right_p_a
#624590
1%n_right_o_0_
#691044
0%n_cc_i_0_
#691051
0%n_right_o_0_
#713293
1%n_cc_i_t
#713697
0%n_cc_w_1_
#713709
0%n_cc_r_r
#719625
1%n_right_o_t
#731097
0%n_cc_i_t
#735632
0%n_right_o_t
#740686
1%n_cc_i_0_
#740800
0%n_right_p_a
#785265
1%n_cc_w_0_
#788287
0%n_cc_i_0_
#788831
1%n_cc_l_r
#818146
1%n_left_p_a
#829831
1%n_cc_i_1_
#829834
1%n_left_o_1_
#831934
0%n_cc_i_1_
#831978
0%n_left_o_1_
#877751
1%n_cc_i_s
#879332
1%n_left_o_s
#902686
0%n_cc_i_s
#902831
0%n_left_o_s
#951464
1%n_cc_i_s
#951478
1%n_left_o_s
#973203
0%n_cc_i_s
#973204
0%n_left_o_s
#1014599
1%n_cc_i_t
#1014604
0%n_cc_w_0_
#1015495
0%n_cc_l_r
#1015496
1%n_left_o_t
#1026450
0%n_cc_i_t
#1027391
0%n_left_o_t
#1089266
0%n_left_p_a
#1100163
1%n_cc_i_0_
#1101081
1%n_cc_w_0_
#1150678
0%n_cc_i_0_
#1197800
1%n_cc_l_r
#1209877
1%n_left_p_a
#1224773
1%n_cc_i_s
#1225600
1%n_left_o_s
#1226031
0%n_cc_i_s
#1226035
0%n_left_o_s
#1282747
1%n_cc_i_t
#1282759
0%n_cc_w_0_
#1286659
0%n_cc_l_r
#1286660
1%n_left_o_t
#1331760
0%n_cc_i_t
#1355135
0%n_left_o_t
#1360770
1%n_cc_i_1_
#1375697
0%n_left_p_a
#1385346
1%n_cc_w_1_
#1385513
0%n_cc_i_1_
#1386976
1%n_cc_r_r
#1387405
1%n_cc_i_1_
#1419467
1%n_right_p_a
#1420671
1%n_right_o_1_
#1431656
0%n_cc_i_1_
#1431726
0%n_right_o_1_
#1483364
1%n_cc_i_s
#1492016
1%n_right_o_s
#1529479
0%n_cc_i_s
#1531223
0%n_right_o_s
#1548549
1%n_cc_i_s
#1548601
1%n_right_o_s
#1570689
0%n_cc_i_s
#1571043
0%n_right_o_s
#1617290
1%n_cc_i_1_
#1617369
1%n_right_o_1_
#1655999
0%n_cc_i_1_
#1656058
0%n_right_o_1_
#1737128
1%n_cc_i_t
#1737255
0%n_cc_w_1_
#1737424
0%n_cc_r_r
#1737467
1%n_right_o_t
#1738994
0%n_cc_i_t
#1739032
0%n_right_o_t
#1753161
1%n_cc_i_s
#1754530
0%n_right_p_a
#1760369
1%n_cc_w_s
#1812028
0%n_cc_i_s
#1812030
1%n_cc_f_r
#1812206
1%n_cc_i_0_
#1812217
1%n_fine_p_a
#1812268
1%n_fine_o_0_
#1812745
0%n_cc_i_0_
#1822998
0%n_fine_o_0_
#1843753
1%n_cc_i_s
#1845364
1%n_fine_o_s
#1862889
0%n_cc_i_s
#1869390
0%n_fine_o_s
#1871972
1%n_cc_i_t
#1874955
0%n_cc_w_s
#1875379
0%n_cc_f_r
#1875385
1%n_fine_o_t
#1904196
0%n_cc_i_t
#1904198
0%n_fine_o_t
#1905029
0%n_fine_p_a
#1906160
1%n_cc_i_0_
#1906179
1%n_cc_w_0_
#1907059
0%n_cc_i_0_
#1909607
1%n_cc_l_r
#1909998
1%n_left_p_a
#1925707
1%n_cc_i_1_
#1926121
1%n_left_o_1_
#1950944
0%n_cc_i_1_
#1990814
0%n_left_o_1_
#2027596
1%n_cc_i_t
#2081045
0%n_cc_w_0_
#2081051
0%n_cc_l_r
#2081305
1%n_left_o_t
#2132356
0%n_cc_i_t
#2135446
0%n_left_o_t
#2141708
1%n_cc_i_0_
#2157298
0%n_left_p_a
#2160679
1%n_cc_w_0_
#2161397
0%n_cc_i_0_
#2175288
1%n_cc_l_r
#2175295
1%n_left_p_a
#2264574
1%n_cc_i_s
#2264581
1%n_left_o_s
#2265887
0%n_cc_i_s
#2265928
0%n_left_o_s
#2343481
1%n_cc_i_0_
#2346617
1%n_left_o_0_
#2368267
0%n_cc_i_0_
#2385040
0%n_left_o_0_
#2458552
1%n_cc_i_0_
#2458553
1%n_left_o_0_
#2494958
0%n_cc_i_0_
#2498047
0%n_left_o_0_
#2554339
1%n_cc_i_s
#2561921
1%n_left_o_s
#2565354
0%n_cc_i_s
#2589628
0%n_left_o_s
#2598245
1%n_cc_i_t
#2598332
0%n_cc_w_0_
#2605054
0%n_cc_l_r
#2605066
1%n_left_o_t
#2607680
0%n_cc_i_t
#2616011
0%n_left_o_t
#2651988
1%n_cc_i_s
#2685589
0%n_left_p_a
#2685714
1%n_cc_w_s
#2702890
0%n_cc_i_s
#2703991
1%n_cc_f_r
#2744921
1%n_cc_i_1_
#2753574
1%n_fine_p_a
#2753611
1%n_fine_o_1_
#2754301
0%n_cc_i_1_
#2755136
0%n_fine_o_1_
#2849773
1%n_cc_i_t
#2850157
0%n_cc_w_s
#2850176
0%n_cc_f_r
#2850185
1%n_fine_o_t
#2921703
0%n_cc_i_t
#2921851
0%n_fine_o_t
#2949612
0%n_fine_p_a
#2967036
1%n_cc_i_s
#2967057
1%n_cc_w_s
#2976610
0%n_cc_i_s
#2977195
1%n_cc_f_r
#2980722
1%n_fine_p_a
#2984328
1%n_cc_i_s
#3012279
1%n_fine_o_s
#3020492
0%n_cc_i_s
#3052220
0%n_fine_o_s
#3064583
1%n_cc_i_0_
#3064677
1%n_fine_o_0_
#3086534
0%n_cc_i_0_
#3086535
0%n_fine_o_0_
#3145139
1%n_cc_i_s
#3145140
1%n_fine_o_s
#3155836
0%n_cc_i_s
#3155840
0%n_fine_o_s
#3194768
1%n_cc_i_t
#3194840
0%n_cc_w_s
#3194951
0%n_cc_f_r
#3194970
1%n_fine_o_t
#3195520
0%n_cc_i_t
#3201697
0%n_fine_o_t
#3209699
1%n_cc_i_0_
#3237969
0%n_fine_p_a
#3263711
1%n_cc_w_0_
#3282408
0%n_cc_i_0_
#3282504
1%n_cc_i_t
#3282541
1%n_cc_l_r
#3298387
1%n_left_p_a
#3298661
0%n_cc_w_0_
#3298662
0%n_cc_l_r
#3306813
1%n_left_o_t
#3329035
0%n_cc_i_t
#3353546
0%n_left_o_t
#3368355
1%n_cc_i_s
#3405630
0%n_left_p_a
#3453875
1%n_cc_w_s
#3453986
0%n_cc_i_s
#3458343
1%n_cc_f_r
#3515139
1%n_cc_i_s
#3528118
1%n_fine_p_a
#3549473
1%n_fine_o_s
#3584156
0%n_cc_i_s
#3584197
0%n_fine_o_s
#3687905
1%n_cc_i_t
#3687906
0%n_cc_w_s
#3688332
0%n_cc_f_r
#3688670
1%n_fine_o_t
#3689768
0%n_cc_i_t
#3717599
0%n_fine_o_t
#3782735
0%n_fine_p_a
#3859753
1%n_cc_i_0_
#3860299
1%n_cc_w_0_
#3888490
0%n_cc_i_0_
#3889378
1%n_cc_l_r
#3911111
1%n_cc_i_t
#3920726
1%n_left_p_a
#3921217
0%n_cc_w_0_
#3949427
0%n_cc_l_r
#3955388
1%n_left_o_t
#3955555
0%n_cc_i_t
#3978393
0%n_left_o_t
#3980797
0%n_left_p_a
#3981108
1%n_cc_i_0_
#3981109
1%n_cc_w_0_
#4011447
0%n_cc_i_0_
#4011476
1%n_cc_l_r
#4014200
1%n_left_p_a
#4024739
1%n_cc_i_0_
#4026280
1%n_left_o_0_
#4081219
0%n_cc_i_0_
#4128356
0%n_left_o_0_
#4193609
1%n_cc_i_s
#4193889
1%n_left_o_s
#4215742
0%n_cc_i_s
#4215751
0%n_left_o_s
#4271819
1%n_cc_i_1_
#4278831
1%n_left_o_1_
#4279300
0%n_cc_i_1_
#4279370
0%n_left_o_1_
#4351574
1%n_cc_i_s
#4358871
1%n_left_o_s
#4359549
0%n_cc_i_s
#4359550
0%n_left_o_s
#4384339
1%n_cc_i_t
#4384345
0%n_cc_w_0_
#4412063
0%n_cc_l_r
#4412073
1%n_left_o_t
#4434607
0%n_cc_i_t
#4437067
0%n_left_o_t
#4443900
0%n_left_p_a
#4484807
1%n_cc_i_1_
#4537884
1%n_cc_w_1_
#4544510
0%n_cc_i_1_
#4545208
1%n_cc_r_r
#4545348
1%n_cc_i_0_
#4545658
1%n_right_p_a
#4595374
1%n_right_o_0_
#4621336
0%n_cc_i_0_
#4635730
0%n_right_o_0_
#4645375
1%n_cc_i_0_
#4709530
1%n_right_o_0_
#4725440
0%n_cc_i_0_
#4725444
0%n_right_o_0_
#4799009
1%n_cc_i_s
#4799017
1%n_right_o_s
#4807105
0%n_cc_i_s
#4807109
0%n_right_o_s
#4826640
1%n_cc_i_1_
#4826743
1%n_right_o_1_
#4866804
0%n_cc_i_1_
#4866805
0%n_right_o_1_
#4889746
1%n_cc_i_1_
#4889748
1%n_right_o_1_
#4925682
0%n_cc_i_1_
#4925683
0%n_right_o_1_
#4986495
1%n_cc_i_0_
#4986503
1%n_right_o_0_
#5028288
0%n_cc_i_0_
#5028289
0%n_right_o_0_
#5063464
1%n_cc_i_0_
#5109371
1%n_right_o_0_
#5111485
0%n_cc_i_0_
#5111486
0%n_right_o_0_
#5134292
1%n_cc_i_t
#5134299
0%n_cc_w_1_
#5134456
0%n_cc_r_r
#5134457
1%n_right_o_t
#5143445
0%n_cc_i_t
#5145538
0%n_right_o_t
#5182093
0%n_right_p_a
#5189894
1%n_cc_i_0_
#5190217
1%n_cc_w_0_
#5205647
0%n_cc_i_0_
#5235957
1%n_cc_l_r
#5255012
1%n_cc_i_1_
#5261133
1%n_left_p_a
#5261151
1%n_left_o_1_
#5282235
0%n_cc_i_1_
#5283936
0%n_left_o_1_
#5354639
1%n_cc_i_1_
#5355050
1%n_left_o_1_
#5375821
0%n_cc_i_1_
#5380182
0%n_left_o_1_
#5434760
1%n_cc_i_t
#5436023
0%n_cc_w_0_
#5436024
0%n_cc_l_r
#5437757
1%n_left_o_t
#5437796
0%n_cc_i_t
#5438185
0%n_left_o_t
#5453776
0%n_left_p_a
#5513757
1%n_cc_i_0_
#5514147
1%n_cc_w_0_
#5514204
0%n_cc_i_0_
#5554969
1%n_cc_i_s
#5557159
1%n_cc_l_r
#5628658
1%n_left_p_a
#5629641
1%n_left_o_s
#5641391
0%n_cc_i_s
#5641396
0%n_left_o_s
#5642713
1%n_cc_i_t
#5642816
0%n_cc_w_0_
#5642924
0%n_cc_l_r
#5642937
1%n_left_o_t
#5657265
0%n_cc_i_t
#5658561
0%n_left_o_t
#5690623
1%n_cc_i_1_
#5744496
0%n_left_p_a
#5745973
1%n_cc_w_1_
#5811796
0%n_cc_i_1_
#5811971
1%n_cc_r_r
#5822916
1%n_right_p_a
#5891811
1%n_cc_i_t
#5937328
0%n_cc_w_1_
#5937330
0%n_cc_r_r
#5937336
1%n_right_o_t
#5945282
0%n_cc_i_t
#5945568
0%n_right_o_t
#5960354
0%n_right_p_a
#5976486
1%n_cc_i_0_
#5976513
1%n_cc_w_0_
#5977288
0%n_cc_i_0_
#5996322
1%n_cc_l_r
#6032410
1%n_cc_i_s
#6050585
1%n_left_p_a
#6050611
1%n_left_o_s
#6061530
0%n_cc_i_s
#6061538
0%n_left_o_s
#6101769
1%n_cc_i_t
#6101771
0%n_cc_w_0_
#6101925
0%n_cc_l_r
#6101969
1%n_left_o_t
#6145313
0%n_cc_i_t
#6145328
0%n_left_o_t
#6152387
0%n_left_p_a
#6229410
1%n_cc_i_1_
#6229481
1%n_cc_w_1_
#6247534
0%n_cc_i_1_
#6248173
1%n_cc_r_r
#6280982
1%n_right_p_a
#6313385
1%n_cc_i_0_
#6313410
1%n_right_o_0_
#6313595
0%n_cc_i_0_
#6317189
0%n_right_o_0_
#6326362
1%n_cc_i_t
#6337115
0%n_cc_w_1_
#6342755
0%n_cc_r_r
#6342969
1%n_right_o_t
#6410954
0%n_cc_i_t
#6410959
0%n_right_o_t
#6437508
0%n_right_p_a
#6446192
1%n_cc_i_s
#6446718
1%n_cc_w_s
#6449028
0%n_cc_i_s
#6449517
1%n_cc_i_1_
#6458067
1%n_cc_f_r
#6460792
1%n_fine_p_a
#6462355
1%n_fine_o_1_
#6506211
0%n_cc_i_1_
#6506741
0%n_fine_o_1_
#6554745
1%n_cc_i_0_
#6554866
1%n_fine_o_0_
#6562428
0%n_cc_i_0_
#6562430
0%n_fine_o_0_
#6563077
1%n_cc_i_t
#6563081
0%n_cc_w_s
#6563168
0%n_cc_f_r
#6563512
1%n_fine_o_t
#6563937
0%n_cc_i_t
#6564530
0%n_fine_o_t
#6575098
0%n_fine_p_a
#6638614
1%n_cc_i_0_
#6678148
1%n_cc_w_0_
#6682105
0%n_cc_i_0_
#6682279
1%n_cc_l_r
#6682631
1%n_cc_i_t
#6684660
1%n_left_p_a
#6684690
0%n_cc_w_0_
#6686314
0%n_cc_l_r
#6697335
1%n_left_o_t
#6750695
0%n_cc_i_t
#6759706
0%n_left_o_t
#6802828
1%n_cc_i_0_
#6817394
0%n_left_p_a
#6818742
1%n_cc_w_0_
#6842211
0%n_cc_i_0_
#6854445
1%n_cc_l_r
#6855754
1%n_cc_i_t
#6867936
1%n_left_p_a
#6868096
0%n_cc_w_0_
#6868103
0%n_cc_l_r
#6868685
1%n_left_o_t
#6869846
0%n_cc_i_t
#6869855
0%n_left_o_t
#6972582
0%n_left_p_a
#7001351
1%n_cc_i_s
#7001352
1%n_cc_w_s
#7004923
0%n_cc_i_s
#7043726
1%n_cc_i_1_
#7048132
1%n_cc_f_r
#7048351
1%n_fine_p_a
#7049666
1%n_fine_o_1_
#7083435
0%n_cc_i_1_
#7100810
0%n_fine_o_1_
#7121874
1%n_cc_i_0_
#7122715
1%n_fine_o_0_
#7125950
0%n_cc_i_0_
#7125955
0%n_fine_o_0_
#7174242
1%n_cc_i_1_
#7174543
1%n_fine_o_1_
#7177616
0%n_cc_i_1_
#7177619
0%n_fine_o_1_
#7214198
1%n_cc_i_s
#7214289
1%n_fine_o_s
#7216488
0%n_cc_i_s
#7220529
0%n_fine_o_s
#7294687
1%n_cc_i_1_
#7294704
1%n_fine_o_1_
#7307372
0%n_cc_i_1_
#7307380
0%n_fine_o_1_
#7335350
1%n_cc_i_0_
#7335351
1%n_fine_o_0_
#7391300
0%n_cc_i_0_
#7391366
0%n_fine_o_0_
#7435168
1%n_cc_i_s
#7435169
1%n_fine_o_s
#7436841
0%n_cc_i_s
#7437010
0%n_fine_o_s
#7496543
1%n_cc_i_1_
#7496557
1%n_fine_o_1_
#7501100
0%n_cc_i_1_
#7501114
0%n_fine_o_1_
#7550307
1%n_cc_i_t
#7592614
0%n_cc_w_s
#7593747
0%n_cc_f_r
#7594320
1%n_fine_o_t
#7615648
0%n_cc_i_t
#7655506
0%n_fine_o_t
#7657167
0%n_fine_p_a
#7667540
1%n_cc_i_s
#7667541
1%n_cc_w_s
#7673246
0%n_cc_i_s
#7673342
1%n_cc_f_r
#7673495
1%n_fine_p_a
#7687102
1%n_cc_i_1_
#7688945
1%n_fine_o_1_
#7708510
0%n_cc_i_1_
#7708511
0%n_fine_o_1_
#7709473
1%n_cc_i_1_
#7709478
1%n_fine_o_1_
#7713915
0%n_cc_i_1_
#7713925
0%n_fine_o_1_
#7764695
1%n_cc_i_s
#7767819
1%n_fine_o_s
#7799874
0%n_cc_i_s
#7801269
0%n_fine_o_s
#7861729
1%n_cc_i_t
#7868445
0%n_cc_w_s
#7868446
0%n_cc_f_r
#7868447
1%n_fine_o_t
#7880838
0%n_cc_i_t
#7880985
0%n_fine_o_t
#7882473
1%n_cc_i_0_
#7883503
0%n_fine_p_a
#7914164
1%n_cc_w_0_
#7916071
0%n_cc_i_0_
#7944107
1%n_cc_l_r
#7946537
1%n_left_p_a
#8000174
1%n_cc_i_1_
#8004108
1%n_left_o_1_
#8011790
0%n_cc_i_1_
#8011801
0%n_left_o_1_
#8046174
1%n_cc_i_t
#8046474
0%n_cc_w_0_
#8098798
0%n_cc_l_r
#8104222
1%n_left_o_t
#8104650
0%n_cc_i_t
#8104651
0%n_left_o_t
#8104937
1%n_cc_i_s
#8126846
0%n_left_p_a
#8181855
1%n_cc_w_s
#8190631
0%n_cc_i_s
#8251754
1%n_cc_f_r
#8251767
1%n_fine_p_a
#8290087
1%n_cc_i_1_
#8321894
1%n_fine_o_1_
#8330119
0%n_cc_i_1_
#8349184
0%n_fine_o_1_
#8420907
1%n_cc_i_s
#8436220
1%n_fine_o_s
#8443166
0%n_cc_i_s
#8446397
0%n_fine_o_s
#8449617
1%n_cc_i_0_
#8449628
1%n_fine_o_0_
#8450538
0%n_cc_i_0_
#8458990
0%n_fine_o_0_
#8492312
1%n_cc_i_t
#8496114
0%n_cc_w_s
#8512382
0%n_cc_f_r
#8512518
1%n_fine_o_t
#8555014
0%n_cc_i_t
#8602269
0%n_fine_o_t
#8653769
1%n_cc_i_1_
#8654612
0%n_fine_p_a
#8660272
1%n_cc_w_1_
#8710698
0%n_cc_i_1_
#8710710
1%n_cc_r_r
#8710752
1%n_right_p_a
#8742921
1%n_cc_i_s
#8742951
1%n_right_o_s
#8750963
0%n_cc_i_s
#8796210
0%n_right_o_s
#8816555
1%n_cc_i_0_
#8816556
1%n_right_o_0_
#8867341
0%n_cc_i_0_
#8867342
0%n_right_o_0_
#8919560
1%n_cc_i_1_
#8920534
1%n_right_o_1_
#8932429
0%n_cc_i_1_
#8932468
0%n_right_o_1_
#8949481
1%n_cc_i_t
#8998046
0%n_cc_w_1_
#9053131
0%n_cc_r_r
#9065653
1%n_right_o_t
#9065951
0%n_cc_i_t
#9065952
0%n_right_o_t
#9079203
1%n_cc_i_s
#9095262
0%n_right_p_a
#9095284
1%n_cc_w_s
#9165156
0%n_cc_i_s
#9179657
1%n_cc_i_s
#9187128
1%n_cc_f_r
#9210145
1%n_fine_p_a
#9210167
1%n_fine_o_s
#9267303
0%n_cc_i_s
#9275978
0%n_fine_o_s
#9277427
1%n_cc_i_s
#9278550
1%n_fine_o_s
#9319358
0%n_cc_i_s
#9319359
0%n_fine_o_s
#9342318
1%n_cc_i_t
#9350238
0%n_cc_w_s
#9350258
0%n_cc_f_r
#9353998
1%n_fine_o_t
#9360826
0%n_cc_i_t
#9360900
0%n_fine_o_t
#9361442
0%n_fine_p_a
#9395470
1%n_cc_i_s
#9424121
1%n_cc_w_s
#9424426
0%n_cc_i_s
#9461114
1%n_cc_f_r
#9461159
1%n_fine_p_a
#9461168
1%n_cc_i_s
#9461208
1%n_fine_o_s
#9491928
0%n_cc_i_s
#9491970
0%n_fine_o_s
#9520504
1%n_cc_i_t
#9520635
0%n_cc_w_s
#9520755
0%n_cc_f_r
#9520756
1%n_fine_o_t
#9607937
0%n_cc_i_t
#9607950
0%n_fine_o_t
#9609655
1%n_cc_i_0_
#9661885
0%n_fine_p_a
#9661900
1%n_cc_w_0_
#9678781
0%n_cc_i_0_
#9679305
1%n_cc_i_1_
#9692046
1%n_cc_l_r
#9692676
1%n_left_p_a
#9692688
1%n_left_o_1_
#9720172
0%n_cc_i_1_
#9720189
0%n_left_o_1_
#9724639
1%n_cc_i_s
#9730985
1%n_left_o_s
#9732450
0%n_cc_i_s
#9735193
0%n_left_o_s
#9786419
1%n_cc_i_s
#9786420
1%n_left_o_s
#9793024
0%n_cc_i_s
#9793028
0%n_left_o_s
#9818526
1%n_cc_i_1_
#9827330
1%n_left_o_1_
#9831361
0%n_cc_i_1_
#9833912
0%n_left_o_1_
#9874607
1%n_cc_i_1_
#9874854
1%n_left_o_1_
#9881346
0%n_cc_i_1_
#9881389
0%n_left_o_1_
#9927920
1%n_cc_i_t
#9928142
0%n_cc_w_0_
#9928143
0%n_cc_l_r
#9928144
1%n_left_o_t
#9933117
0%n_cc_i_t
#9933121
0%n_left_o_t
#9937222
0%n_left_p_a
#9938286
1%n_cc_i_s
#9940422
1%n_cc_w_s
#9946339
0%n_cc_i_s
#9947280
1%n_cc_f_r
#9947782
1%n_fine_p_a
#10011388
1%n_cc_i_s
#10050817
1%n_fine_o_s
#10098667
0%n_cc_i_s
#10099771
0%n_fine_o_s
#10151245
1%n_cc_i_0_
#10159136
1%n_fine_o_0_
#10225786
0%n_cc_i_0_
#10225787
0%n_fine_o_0_
#10236279
1%n_cc_i_1_
#10236303
1%n_fine_o_1_
#10300106
0%n_cc_i_1_
#10307108
0%n_fine_o_1_
#10314087
1%n_cc_i_t
#10314101
0%n_cc_w_s
#10316662
0%n_cc_f_r
#10316702
1%n_fine_o_t
#10338230
0%n_cc_i_t
#10338269
0%n_fine_o_t
#10340283
1%n_cc_i_1_
#10340801
0%n_fine_p_a
#10344735
1%n_cc_w_1_
#10353509
0%n_cc_i_1_
#10364596
1%n_cc_r_r
#10364723
1%n_cc_i_t
#10371215
1%n_right_p_a
#10371222
0%n_cc_w_1_
#10372049
0%n_cc_r_r
#10372434
1%n_right_o_t
#10386065
0%n_cc_i_t
#10392405
0%n_right_o_t
#10461754
1%n_cc_i_s
#10493755
0%n_right_p_a
#10509986
1%n_cc_w_s
#10525973
0%n_cc_i_s
#10530994
1%n_cc_f_r
#10531278
1%n_fine_p_a
#10557337
1%n_cc_i_0_
#10579600
1%n_fine_o_0_
#10579751
0%n_cc_i_0_
#10579945
0%n_fine_o_0_
#10581988
1%n_cc_i_0_
#10582137
1%n_fine_o_0_
#10592936
0%n_cc_i_0_
#10639957
0%n_fine_o_0_
#10650376
1%n_cc_i_1_
#10650381
1%n_fine_o_1_
#10650696
0%n_cc_i_1_
#10653855
0%n_fine_o_1_
#10712791
1%n_cc_i_s
#10712869
1%n_fine_o_s
#10713936
0%n_cc_i_s
#10713967
0%n_fine_o_s
#10753495
1%n_cc_i_s
#10753510
1%n_fine_o_s
#10815671
0%n_cc_i_s
#10825487
0%n_fine_o_s
#10853202
1%n_cc_i_t
#10854489
0%n_cc_w_s
#10854509
0%n_cc_f_r
#10854510
1%n_fine_o_t
#10878760
0%n_cc_i_t
#10878785
0%n_fine_o_t
#10880009
1%n_cc_i_s
#10887491
0%n_fine_p_a
#10887503
1%n_cc_w_s
#10937911
0%n_cc_i_s
#10946178
1%n_cc_i_1_
#10947648
1%n_cc_f_r
#10947682
1%n_fine_p_a
#10947715
1%n_fine_o_1_
#11015055
0%n_cc_i_1_
#11033668
0%n_fine_o_1_
#11047178
1%n_cc_i_t
#11047179
0%n_cc_w_s
#11052354
0%n_cc_f_r
#11064228
1%n_fine_o_t
#11113543
0%n_cc_i_t
#11113710
0%n_fine_o_t
#11113921
1%n_cc_i_1_
#11135745
0%n_fine_p_a
#11154122
1%n_cc_w_1_
#11165549
0%n_cc_i_1_
#11177518
1%n_cc_i_t
#11178795
1%n_cc_r_r
#11207116
1%n_right_p_a
#11260217
0%n_cc_w_1_
#11260264
0%n_cc_r_r
#11261628
1%n_right_o_t
#11264096
0%n_cc_i_t
#11264156
0%n_right_o_t
#11276730
0%n_right_p_a
#11316609
1%n_cc_i_0_
#11322807
1%n_cc_w_0_
#11322889
0%n_cc_i_0_
#11325534
1%n_cc_l_r
#11328905
1%n_cc_i_0_
#11362274
1%n_left_p_a
#11363740
1%n_left_o_0_
#11363812
0%n_cc_i_0_
#11371473
0%n_left_o_0_
#11478249
1%n_cc_i_0_
#11478628
1%n_left_o_0_
#11478828
0%n_cc_i_0_
#11479453
0%n_left_o_0_
#11482489
1%n_cc_i_s
#11483174
1%n_left_o_s
#11539759
0%n_cc_i_s
#11539774
0%n_left_o_s
#11591045
1%n_cc_i_s
#11591253
1%n_left_o_s
#11592031
0%n_cc_i_s
#11592080
0%n_left_o_s
#11593796
1%n_cc_i_t
#11600855
0%n_cc_w_0_
#11600856
0%n_cc_l_r
#11600879
1%n_left_o_t
#11623497
0%n_cc_i_t
#11623599
0%n_left_o_t
#11630418
0%n_left_p_a
#11640886
1%n_cc_i_s
#11660322
1%n_cc_w_s
#11705312
0%n_cc_i_s
#11705974
1%n_cc_f_r
#11711674
1%n_fine_p_a
#11767951
1%n_cc_i_1_
#11772396
1%n_fine_o_1_
#11803668
0%n_cc_i_1_
#11804111
0%n_fine_o_1_
#11889817
1%n_cc_i_1_
#11889818
1%n_fine_o_1_
#11895155
0%n_cc_i_1_
#11895156
0%n_fine_o_1_
#11919259
1%n_cc_i_0_
#11978820
1%n_fine_o_0_
#12061007
0%n_cc_i_0_
#12061026
0%n_fine_o_0_
#12129702
1%n_cc_i_1_
#12144117
1%n_fine_o_1_
#12165055
0%n_cc_i_1_
#12165130
0%n_fine_o_1_
#12245990
1%n_cc_i_t
#12246014
0%n_cc_w_s
#12246018
0%n_cc_f_r
#12246044
1%n_fine_o_t
#12251087
0%n_cc_i_t
#12251097
0%n_fine_o_t
#12291052
0%n_fine_p_a
#12295393
1%n_cc_i_0_
#12298009
1%n_cc_w_0_
#12306272
0%n_cc_i_0_
#12306276
1%n_cc_l_r
#12308749
1%n_left_p_a
#12309586
1%n_cc_i_0_
#12309636
1%n_left_o_0_
#12355931
0%n_cc_i_0_
#12355964
0%n_left_o_0_
#12373629
1%n_cc_i_1_
#12387269
1%n_left_o_1_
#12436489
0%n_cc_i_1_
#12436921
0%n_left_o_1_
#12452685
1%n_cc_i_t
#12452687
0%n_cc_w_0_
#12453268
0%n_cc_l_r
#12453331
1%n_left_o_t
#12520445
0%n_cc_i_t
#12520446
0%n_left_o_t
#12565814
0%n_left_p_a
#12636115
1%n_cc_i_1_
#12638080
1%n_cc_w_1_
#12684077
0%n_cc_i_1_
#12684082
1%n_cc_r_r
#12702263
1%n_right_p_a
#12708165
1%n_cc_i_t
#12733278
0%n_cc_w_1_
#12741695
0%n_cc_r_r
#12741742
1%n_right_o_t
#12799051
0%n_cc_i_t
#12799090
0%n_right_o_t
#12801410
1%n_cc_i_s
#12802206
0%n_right_p_a
#12820744
1%n_cc_w_s
#12847186
0%n_cc_i_s
#12864983
1%n_cc_i_0_
#12868953
1%n_cc_f_r
#12869135
1%n_fine_p_a
#12869136
1%n_fine_o_0_
#12937051
0%n_cc_i_0_
#12938590
0%n_fine_o_0_
#13009896
1%n_cc_i_1_
#13010034
1%n_fine_o_1_
#13092313
0%n_cc_i_1_
#13092541
0%n_fine_o_1_
#13119771
1%n_cc_i_t
#13120841
0%n_cc_w_s
#13120842
0%n_cc_f_r
#13126135
1%n_fine_o_t
#13148687
0%n_cc_i_t
#13159819
0%n_fine_o_t
#13159960
0%n_fine_p_a
#13164147
1%n_cc_i_1_
#13223950
1%n_cc_w_1_
#13232728
0%n_cc_i_1_
#13250400
1%n_cc_r_r
#13250899
1%n_cc_i_t
#13259316
1%n_right_p_a
#13259329
0%n_cc_w_1_
#13275253
0%n_cc_r_r
#13275258
1%n_right_o_t
#13286695
0%n_cc_i_t
#13292075
0%n_right_o_t
#13295729
1%n_cc_i_0_
#13300578
0%n_right_p_a
#13300773
1%n_cc_w_0_
#13307805
0%n_cc_i_0_
