roottest0.vcd
$comment
Auto-generated from roottest0.log.
$end
$timescale 1ps $end
$scope module _test_roottest0 $end
$var wire 1 %sc_p_0_ sc.p_0_ $end
$var wire 1 %sc_p_6_ sc.p_6_ $end
$var wire 1 %sc_p_2_ sc.p_2_ $end
$var wire 1 %sc_p_4_ sc.p_4_ $end
$var wire 1 %sc_p_a sc.p_a $end
$var wire 1 %sc_p_1_ sc.p_1_ $end
$var wire 1 %sc_p_3_ sc.p_3_ $end
$var wire 1 %sc_p_5_ sc.p_5_ $end
$var wire 1 %sc_p_7_ sc.p_7_ $end
$upscope $end
$enddefinitions $end
$dumpvars
0%sc_p_0_
0%sc_p_6_
0%sc_p_2_
0%sc_p_4_
0%sc_p_a
0%sc_p_1_
0%sc_p_3_
0%sc_p_5_
0%sc_p_7_
$end
#81
1%sc_p_0_
#82
1%sc_p_6_
#7172
1%sc_p_2_
#10547
1%sc_p_4_
#15300
1%sc_p_a
#15414
0%sc_p_2_
#16437
0%sc_p_0_
#17026
0%sc_p_6_
#80666
0%sc_p_4_
#80705
0%sc_p_a
#80718
1%sc_p_4_
#80720
1%sc_p_1_
#80745
1%sc_p_6_
#81196
1%sc_p_2_
#81611
1%sc_p_a
#81627
0%sc_p_6_
#81631
0%sc_p_1_
#81658
0%sc_p_4_
#87672
0%sc_p_2_
#131770
0%sc_p_a
#131774
1%sc_p_3_
#131785
1%sc_p_6_
#140899
1%sc_p_4_
#145494
1%sc_p_0_
#188742
1%sc_p_a
#188797
0%sc_p_3_
#218522
0%sc_p_6_
#225673
0%sc_p_0_
#240395
0%sc_p_4_
#254244
0%sc_p_a
#254666
1%sc_p_4_
#268587
1%sc_p_3_
#279056
1%sc_p_1_
#302958
1%sc_p_6_
#302959
1%sc_p_a
#302960
0%sc_p_1_
#303241
0%sc_p_4_
#303727
0%sc_p_6_
#323164
0%sc_p_3_
#323167
0%sc_p_a
#323718
1%sc_p_2_
#324121
1%sc_p_6_
#324238
1%sc_p_5_
#345608
1%sc_p_0_
#346689
1%sc_p_a
#346707
0%sc_p_5_
#347671
0%sc_p_2_
#350702
0%sc_p_6_
#401159
0%sc_p_0_
#405162
0%sc_p_a
#405664
1%sc_p_6_
#409922
1%sc_p_5_
#426746
1%sc_p_2_
#450063
1%sc_p_1_
#450266
1%sc_p_a
#450335
0%sc_p_6_
#450405
0%sc_p_2_
#452120
0%sc_p_1_
#486612
0%sc_p_5_
#486623
0%sc_p_a
#486624
1%sc_p_6_
#486638
1%sc_p_5_
#486827
1%sc_p_3_
#538409
1%sc_p_0_
#538446
1%sc_p_a
#538486
0%sc_p_6_
#538558
0%sc_p_3_
#539185
0%sc_p_0_
#585958
0%sc_p_5_
#586215
0%sc_p_a
#586216
1%sc_p_5_
#586302
1%sc_p_1_
#586509
1%sc_p_3_
#588021
1%sc_p_6_
#590028
1%sc_p_a
#590206
0%sc_p_5_
#590618
0%sc_p_3_
#590831
0%sc_p_6_
#591237
0%sc_p_1_
#591401
0%sc_p_a
#591423
1%sc_p_2_
#592248
1%sc_p_4_
#593596
1%sc_p_0_
#621529
1%sc_p_7_
#621662
1%sc_p_a
#621883
0%sc_p_7_
#622021
0%sc_p_2_
#635778
0%sc_p_4_
#637324
0%sc_p_0_
#637331
0%sc_p_a
#637361
1%sc_p_1_
#637422
1%sc_p_7_
#644044
1%sc_p_2_
#694792
1%sc_p_4_
#696981
1%sc_p_a
#696988
0%sc_p_1_
#697059
0%sc_p_7_
#697087
0%sc_p_4_
#699768
0%sc_p_2_
#700043
0%sc_p_a
#700055
1%sc_p_4_
#700447
1%sc_p_7_
#700498
1%sc_p_3_
#719039
1%sc_p_0_
#719051
1%sc_p_a
#721950
0%sc_p_4_
#723327
0%sc_p_3_
#723346
0%sc_p_7_
#724967
0%sc_p_0_
#724969
0%sc_p_a
#725135
1%sc_p_7_
#726218
1%sc_p_3_
#728468
1%sc_p_4_
#729504
1%sc_p_1_
#729579
1%sc_p_a
#729581
0%sc_p_7_
#729717
0%sc_p_3_
#729924
0%sc_p_1_
#734842
0%sc_p_4_
#778759
0%sc_p_a
#778760
1%sc_p_0_
#778770
1%sc_p_5_
#779129
1%sc_p_7_
#779307
1%sc_p_2_
#779374
1%sc_p_a
#779390
0%sc_p_2_
#779902
0%sc_p_7_
#782015
0%sc_p_0_
#783936
0%sc_p_5_
#786371
0%sc_p_a
#786373
1%sc_p_7_
#799412
1%sc_p_5_
#810296
1%sc_p_2_
#813251
1%sc_p_1_
#874209
1%sc_p_a
#874212
0%sc_p_1_
#874238
0%sc_p_2_
#874526
0%sc_p_5_
#875810
0%sc_p_7_
#875963
0%sc_p_a
#875964
1%sc_p_7_
#876007
1%sc_p_0_
#878724
1%sc_p_3_
#889646
1%sc_p_5_
#889863
1%sc_p_a
#889864
0%sc_p_3_
#889885
0%sc_p_0_
#891444
0%sc_p_5_
#899208
0%sc_p_7_
#899367
0%sc_p_a
#899512
1%sc_p_7_
#900654
1%sc_p_3_
#901599
1%sc_p_5_
#919043
1%sc_p_1_
#921875
1%sc_p_a
#921876
0%sc_p_3_
#922037
0%sc_p_7_
#928229
0%sc_p_1_
#961159
0%sc_p_5_
#968528
0%sc_p_a
