roottest0.vcd
$comment
Auto-generated from roottest0.log.
$end
$timescale 1ps $end
$scope module _test_roottest0 $end
$var wire 1 %sc_p_0_ sc.p_0_ $end
$var wire 1 %sc_p_2_ sc.p_2_ $end
$var wire 1 %sc_p_4_ sc.p_4_ $end
$var wire 1 %sc_p_6_ sc.p_6_ $end
$var wire 1 %sc_p_a sc.p_a $end
$var wire 1 %sc_p_1_ sc.p_1_ $end
$var wire 1 %sc_p_3_ sc.p_3_ $end
$var wire 1 %sc_p_5_ sc.p_5_ $end
$var wire 1 %sc_p_7_ sc.p_7_ $end
$upscope $end
$enddefinitions $end
$dumpvars
0%sc_p_0_
0%sc_p_2_
0%sc_p_4_
0%sc_p_6_
0%sc_p_a
0%sc_p_1_
0%sc_p_3_
0%sc_p_5_
0%sc_p_7_
$end
#81
1%sc_p_0_
#7173
1%sc_p_2_
#17640
1%sc_p_4_
#17642
1%sc_p_6_
#22395
1%sc_p_a
#23532
0%sc_p_0_
#23646
0%sc_p_2_
#89012
0%sc_p_4_
#90738
0%sc_p_6_
#90777
0%sc_p_a
#90792
1%sc_p_1_
#91283
1%sc_p_2_
#91296
1%sc_p_4_
#91336
1%sc_p_6_
#91751
1%sc_p_a
#91771
0%sc_p_1_
#97832
0%sc_p_2_
#97879
0%sc_p_4_
#97895
0%sc_p_6_
#141993
0%sc_p_a
#155717
1%sc_p_0_
#155721
1%sc_p_3_
#164850
1%sc_p_4_
#164865
1%sc_p_6_
#208113
1%sc_p_a
#245044
0%sc_p_0_
#245099
0%sc_p_3_
#296752
0%sc_p_4_
#326532
0%sc_p_6_
#340381
0%sc_p_a
#365193
1%sc_p_1_
#379536
1%sc_p_3_
#379958
1%sc_p_4_
#428672
1%sc_p_6_
#428673
1%sc_p_a
#428674
0%sc_p_1_
#448879
0%sc_p_3_
#449161
0%sc_p_4_
#449929
0%sc_p_6_
#449932
0%sc_p_a
#472373
1%sc_p_0_
#472924
1%sc_p_2_
#473995
1%sc_p_5_
#474949
1%sc_p_6_
#476030
1%sc_p_a
#530500
0%sc_p_0_
#531482
0%sc_p_2_
#531500
0%sc_p_5_
#535513
0%sc_p_6_
#539516
0%sc_p_a
#584417
1%sc_p_1_
#606001
1%sc_p_2_
#610761
1%sc_p_5_
#611263
1%sc_p_6_
#611466
1%sc_p_a
#613320
0%sc_p_1_
#613459
0%sc_p_2_
#649805
0%sc_p_5_
#649874
0%sc_p_6_
#649885
0%sc_p_a
#701671
1%sc_p_0_
#701875
1%sc_p_3_
#701890
1%sc_p_5_
#701891
1%sc_p_6_
#701928
1%sc_p_a
#702667
0%sc_p_0_
#702779
0%sc_p_3_
#750291
0%sc_p_5_
#750331
0%sc_p_6_
#750588
0%sc_p_a
#750675
1%sc_p_1_
#750969
1%sc_p_3_
#750970
1%sc_p_5_
#752776
1%sc_p_6_
#754783
1%sc_p_a
#755992
0%sc_p_1_
#756582
0%sc_p_3_
#756760
0%sc_p_5_
#757563
0%sc_p_6_
#757727
0%sc_p_a
#759922
1%sc_p_0_
#759944
1%sc_p_2_
#760791
1%sc_p_4_
#790919
1%sc_p_7_
#791052
1%sc_p_a
#806714
0%sc_p_0_
#807073
0%sc_p_2_
#821189
0%sc_p_4_
#821410
0%sc_p_7_
#821417
0%sc_p_a
#821447
1%sc_p_1_
#828160
1%sc_p_2_
#885621
1%sc_p_4_
#885712
1%sc_p_7_
#887901
1%sc_p_a
#887908
0%sc_p_1_
#890695
0%sc_p_2_
#890801
0%sc_p_4_
#890879
0%sc_p_7_
#891154
0%sc_p_a
#910150
1%sc_p_0_
#910605
1%sc_p_3_
#910617
1%sc_p_4_
#911021
1%sc_p_7_
#911033
1%sc_p_a
#916949
0%sc_p_0_
#921225
0%sc_p_3_
#924124
0%sc_p_4_
#928419
0%sc_p_7_
#928421
0%sc_p_a
#932956
1%sc_p_1_
#934205
1%sc_p_3_
#937704
1%sc_p_4_
#937870
1%sc_p_7_
#937945
1%sc_p_a
#938290
0%sc_p_1_
#938428
0%sc_p_3_
#943691
0%sc_p_4_
#943693
0%sc_p_7_
#987610
0%sc_p_a
#987611
1%sc_p_0_
#988159
1%sc_p_2_
#988170
1%sc_p_5_
#988540
1%sc_p_7_
#988607
1%sc_p_a
#991248
0%sc_p_0_
#991264
0%sc_p_2_
#995826
0%sc_p_5_
#996354
0%sc_p_7_
#998789
0%sc_p_a
#1025669
1%sc_p_1_
#1049594
1%sc_p_2_
#1062635
1%sc_p_5_
#1062637
1%sc_p_7_
#1123595
1%sc_p_a
#1123598
0%sc_p_1_
#1123627
0%sc_p_2_
#1123944
0%sc_p_5_
#1125545
0%sc_p_7_
#1125698
0%sc_p_a
#1125742
1%sc_p_0_
#1128503
1%sc_p_3_
#1142186
1%sc_p_5_
#1142187
1%sc_p_7_
#1142404
1%sc_p_a
#1142426
0%sc_p_0_
#1142427
0%sc_p_3_
#1144008
0%sc_p_5_
#1153353
0%sc_p_7_
#1153512
0%sc_p_a
#1173188
1%sc_p_1_
#1174475
1%sc_p_3_
#1176707
1%sc_p_5_
#1176852
1%sc_p_7_
#1179684
1%sc_p_a
#1186038
0%sc_p_1_
#1186039
0%sc_p_3_
#1225323
0%sc_p_5_
#1225485
0%sc_p_7_
#1232854
0%sc_p_a
