selectortest0.vcd
$comment
Auto-generated from selectortest0.log.
$end
$timescale 1ps $end
$scope module _test_selectortest0 $end
$var wire 1 %tc0_q_r tc0.q_r $end
$var wire 1 %s_b0_2_0 s.b0_2_0 $end
$var wire 1 %tr_c_4_ tr.c_4_ $end
$var wire 1 %s_b0_t_0 s.b0_t_0 $end
$var wire 1 %tr_c_6_ tr.c_6_ $end
$var wire 1 %s_b0_0_0 s.b0_0_0 $end
$var wire 1 %s_b0_1_0 s.b0_1_0 $end
$var wire 1 %tr_c_2_ tr.c_2_ $end
$var wire 1 %tr_c_0_ tr.c_0_ $end
$var wire 1 %s_ack s.ack $end
$var wire 1 %tc0_p_a tc0.p_a $end
$var wire 1 %c_q_a_0_ c.q_a_0_ $end
$var wire 1 %tc1_q_r tc1.q_r $end
$var wire 1 %s_b1_0_0 s.b1_0_0 $end
$var wire 1 %s_b1_t_0 s.b1_t_0 $end
$var wire 1 %s_b1_2_0 s.b1_2_0 $end
$var wire 1 %s_b1_1_0 s.b1_1_0 $end
$var wire 1 %tc1_p_a tc1.p_a $end
$var wire 1 %c_q_a_1_ c.q_a_1_ $end
$var wire 1 %tc2_q_r tc2.q_r $end
$var wire 1 %s_b2_2_0 s.b2_2_0 $end
$var wire 1 %s_b2_1_0 s.b2_1_0 $end
$var wire 1 %s_b2_t_0 s.b2_t_0 $end
$var wire 1 %s_b2_0_0 s.b2_0_0 $end
$var wire 1 %tc2_p_a tc2.p_a $end
$var wire 1 %c_q_a_2_ c.q_a_2_ $end
$var wire 1 %tc3_q_r tc3.q_r $end
$var wire 1 %s_T1_0 s.T1_0 $end
$var wire 1 %s_ch_1 s.ch_1 $end
$var wire 1 %tr_c_7_ tr.c_7_ $end
$var wire 1 %s_T2_0 s.T2_0 $end
$var wire 1 %s_T0_0 s.T0_0 $end
$var wire 1 %tc3_p_a3 tc3.p_a3 $end
$var wire 1 %tc3_p_a1 tc3.p_a1 $end
$var wire 1 %tc3_p_a0 tc3.p_a0 $end
$var wire 1 %tc3_p_a2 tc3.p_a2 $end
$var wire 1 %c_q_a_3_ c.q_a_3_ $end
$var wire 1 %s_b0_0_1 s.b0_0_1 $end
$var wire 1 %tr_c_1_ tr.c_1_ $end
$var wire 1 %s_b1_0_1 s.b1_0_1 $end
$var wire 1 %s_b2_0_1 s.b2_0_1 $end
$var wire 1 %s_T0_1 s.T0_1 $end
$var wire 1 %s_b0_1_1 s.b0_1_1 $end
$var wire 1 %tr_c_3_ tr.c_3_ $end
$var wire 1 %s_b1_1_1 s.b1_1_1 $end
$var wire 1 %s_b2_1_1 s.b2_1_1 $end
$var wire 1 %s_T1_1 s.T1_1 $end
$var wire 1 %s_b0_2_1 s.b0_2_1 $end
$var wire 1 %tr_c_5_ tr.c_5_ $end
$var wire 1 %s_b1_2_1 s.b1_2_1 $end
$var wire 1 %s_b2_2_1 s.b2_2_1 $end
$var wire 1 %s_T2_1 s.T2_1 $end
$upscope $end
$enddefinitions $end
$dumpvars
0%tc0_q_r
0%s_b0_2_0
0%tr_c_4_
0%s_b0_t_0
0%tr_c_6_
0%s_b0_0_0
0%s_b0_1_0
0%tr_c_2_
0%tr_c_0_
0%s_ack
0%tc0_p_a
0%c_q_a_0_
0%tc1_q_r
0%s_b1_0_0
0%s_b1_t_0
0%s_b1_2_0
0%s_b1_1_0
0%tc1_p_a
0%c_q_a_1_
0%tc2_q_r
0%s_b2_2_0
0%s_b2_1_0
0%s_b2_t_0
0%s_b2_0_0
0%tc2_p_a
0%c_q_a_2_
0%tc3_q_r
0%s_T1_0
0%s_ch_1
0%tr_c_7_
0%s_T2_0
0%s_T0_0
0%tc3_p_a3
0%tc3_p_a1
0%tc3_p_a0
0%tc3_p_a2
0%c_q_a_3_
0%s_b0_0_1
0%tr_c_1_
0%s_b1_0_1
0%s_b2_0_1
0%s_T0_1
0%s_b0_1_1
0%tr_c_3_
0%s_b1_1_1
0%s_b2_1_1
0%s_T1_1
0%s_b0_2_1
0%tr_c_5_
0%s_b1_2_1
0%s_b2_2_1
0%s_T2_1
$end
#81
1%tc0_q_r
#83
1%s_b0_2_0
#1220
1%tr_c_4_
#4834
1%s_b0_t_0
#4948
1%tr_c_6_
#7173
1%s_b0_0_0
#10548
1%s_b0_1_0
#12274
1%tr_c_2_
#72539
1%tr_c_0_
#72578
1%s_ack
#72593
1%tc0_p_a
#72606
0%s_b0_1_0
#72626
0%tr_c_2_
#72633
0%s_b0_2_0
#73008
0%s_b0_t_0
#73055
0%tr_c_6_
#73084
0%s_b0_0_0
#73100
0%tr_c_0_
#78694
0%tr_c_4_
#122792
0%s_ack
#136516
0%tc0_p_a
#136520
1%c_q_a_0_
#145649
1%tc1_q_r
#145664
1%s_b1_0_0
#145704
1%s_b1_t_0
#175484
1%tr_c_6_
#182580
1%s_b1_2_0
#188897
1%s_b1_1_0
#196429
1%tr_c_4_
#197317
1%tr_c_0_
#213709
1%tr_c_2_
#228052
1%s_ack
#228474
1%tc1_p_a
#228475
0%s_b1_1_0
0%s_b1_2_0
#228757
0%tr_c_2_
#229243
0%tr_c_4_
#248679
0%s_b1_t_0
#248682
0%tr_c_6_
#277188
0%s_b1_0_0
#299629
0%tr_c_0_
#300180
0%s_ack
#301251
0%tc1_p_a
#302205
1%c_q_a_1_
#303286
1%tc2_q_r
#303304
1%s_b2_2_0
#304268
1%s_b2_1_0
#307299
1%s_b2_t_0
#307307
1%tr_c_4_
#328883
1%tr_c_6_
#349169
1%tr_c_2_
#357756
1%s_b2_0_0
#362516
1%tr_c_0_
#363018
1%s_ack
#363221
1%tc2_p_a
#363290
0%s_b2_t_0
#363301
0%tr_c_6_
#363360
0%s_b2_1_0
#365075
0%s_b2_0_0
#365279
0%tr_c_0_
#399567
0%s_b2_2_0
#399582
0%tr_c_4_
#415146
0%tr_c_2_
#415147
0%s_ack
#415184
0%tc2_p_a
#415923
1%c_q_a_2_
#416035
1%tc3_q_r
#416075
1%s_T1_0
#416122
1%s_ch_1
#416123
1%tr_c_7_
#416292
1%s_T2_0
#416369
1%tr_c_2_
#418098
1%tr_c_4_
#463547
1%s_T0_0
#465554
1%tr_c_0_
#466763
1%s_ack
#466927
1%tc3_p_a3
#466941
1%tc3_p_a1
#467353
1%tc3_p_a0
#467566
1%tc3_p_a2
#467588
0%s_T1_0
#467721
0%tr_c_2_
#468413
0%s_T2_0
#469761
0%s_T0_0
#470120
0%tr_c_0_
#484075
0%tr_c_4_
#497694
0%s_ch_1
#511810
0%tr_c_7_
#512031
0%s_ack
#512038
0%tc3_p_a0
#512061
0%tc3_p_a1
#518744
0%tc3_p_a2
#569492
0%tc3_p_a3
#569583
1%c_q_a_3_
#571772
0%tc0_q_r
#571779
1%s_b0_0_1
#571850
1%s_b0_t_0
#571878
1%s_b0_2_0
#572054
1%tr_c_1_
#572333
1%tr_c_4_
#574559
1%s_b0_1_0
#574571
1%tr_c_2_
#590846
1%tr_c_6_
#591250
1%s_ack
#591262
1%tc0_p_a
#594161
0%s_b0_2_0
#594163
0%tr_c_4_
#595538
0%s_b0_1_0
#595557
0%s_b0_t_0
#596806
0%tr_c_6_
#597178
0%s_b0_0_1
#600073
0%tr_c_2_
#600677
0%tr_c_1_
#600843
0%s_ack
#600918
0%tc0_p_a
#601263
0%c_q_a_0_
#601401
0%tc1_q_r
#601402
1%s_b1_t_0
#601403
1%s_b1_1_0
#601414
1%tr_c_2_
#601950
1%tr_c_6_
#606664
1%s_b1_0_1
#607034
1%tr_c_1_
#645318
1%s_b1_2_0
#645385
1%tr_c_4_
#648026
1%s_ack
#648042
1%tc1_p_a
#648570
0%s_b1_1_0
#650477
0%s_b1_2_0
#652604
0%s_b1_0_1
#652606
0%tr_c_1_
#663518
0%tr_c_4_
#672495
0%tr_c_2_
#674922
0%s_b1_t_0
#735880
0%tr_c_6_
#735883
0%s_ack
#735912
0%tc1_p_a
#736229
0%c_q_a_1_
#737830
0%tc2_q_r
#737874
1%s_b2_1_0
#737875
1%tr_c_2_
#737983
1%s_b2_0_1
#738200
1%tr_c_1_
#740591
1%s_b2_2_0
#740613
1%tr_c_4_
#751513
1%s_b2_t_0
#751514
1%tr_c_6_
#753095
1%s_ack
#762440
1%tc2_p_a
#762599
0%s_b2_0_1
#762744
0%tr_c_1_
#763727
0%s_b2_2_0
#764672
0%s_b2_t_0
#766559
0%tr_c_4_
#771026
0%tr_c_6_
#782116
0%s_b2_1_0
#782117
0%tr_c_2_
#821401
0%s_ack
#821563
0%tc2_p_a
#828932
0%c_q_a_2_
#828946
0%tc3_q_r
#828947
1%s_ch_1
#828948
1%tr_c_7_
#828953
1%s_T0_1
#828954
1%tr_c_1_
#829106
1%s_T1_0
#831349
1%tr_c_2_
#850503
1%s_T2_0
#850690
1%tr_c_4_
#850691
1%s_ack
#850692
1%tc3_p_a2
#851544
1%tc3_p_a3
#854873
1%tc3_p_a0
#885473
1%tc3_p_a1
#885474
0%s_T2_0
#885478
0%s_T0_1
#885490
0%s_ch_1
#885493
0%tr_c_7_
#886364
0%s_T1_0
#887305
0%tr_c_2_
#888047
0%tr_c_4_
#893839
0%tr_c_1_
#952801
0%s_ack
#952802
0%tc3_p_a0
#952843
0%tc3_p_a1
#955618
0%tc3_p_a2
#966534
0%tc3_p_a3
#966629
0%c_q_a_3_
#966964
1%tc0_q_r
#966972
1%s_b0_0_0
#966976
1%tr_c_0_
#966998
1%s_b0_1_1
#967882
1%s_b0_t_0
#970280
1%tr_c_6_
#980851
1%s_b0_2_0
#984066
1%tr_c_4_
#1013376
1%tr_c_3_
#1060495
1%s_ack
#1060543
1%tc0_p_a
#1060546
0%s_b0_0_0
#1060721
0%s_b0_1_1
#1066497
0%tr_c_0_
#1072442
0%s_b0_t_0
#1073269
0%tr_c_6_
#1081520
0%s_b0_2_0
#1081693
0%tr_c_4_
#1100206
0%tr_c_3_
#1100390
0%s_ack
#1100391
0%tc0_p_a
#1100464
1%c_q_a_0_
#1100468
1%tc1_q_r
#1100469
1%s_b1_t_0
#1100564
1%s_b1_1_1
#1100604
1%s_b1_2_0
#1100805
1%tr_c_3_
#1104563
1%tr_c_4_
#1119515
1%tr_c_6_
#1137756
1%s_b1_0_0
#1137768
1%tr_c_0_
#1141668
1%s_ack
#1142697
1%tc1_p_a
#1142698
0%s_b1_0_0
0%s_b1_t_0
#1142735
0%tr_c_0_
#1142753
0%s_b1_1_1
#1142754
0%tr_c_3_
#1166073
0%tr_c_6_
#1187703
0%s_b1_2_0
#1191267
0%tr_c_4_
#1192959
0%s_ack
#1192972
0%tc1_p_a
#1209956
1%c_q_a_1_
#1210313
1%tc2_q_r
#1210314
1%s_b2_2_0
#1210315
1%tr_c_4_
#1210334
1%s_b2_1_1
#1210335
1%tr_c_3_
#1210338
1%s_b2_0_0
#1210499
1%tr_c_0_
#1219961
1%s_b2_t_0
#1220998
1%tr_c_6_
#1221003
1%s_ack
#1221584
1%tc2_p_a
#1221595
0%s_b2_1_1
#1221598
0%s_b2_t_0
#1221602
0%tr_c_6_
#1221613
0%tr_c_3_
#1221992
0%s_b2_0_0
#1222096
0%tr_c_0_
#1222631
0%s_b2_2_0
#1254075
0%tr_c_4_
#1255279
0%s_ack
#1263734
0%tc2_p_a
#1263962
1%c_q_a_2_
#1264805
1%tc3_q_r
#1264816
1%s_ch_1
#1264819
1%tr_c_7_
#1264875
1%s_T1_1
#1264929
1%tr_c_3_
#1266264
1%s_T0_0
#1267412
1%tr_c_0_
#1315227
1%s_T2_0
#1316388
1%tr_c_4_
#1325040
1%s_ack
#1325121
1%tc3_p_a0
#1325132
1%tc3_p_a3
#1336117
1%tc3_p_a1
#1343023
1%tc3_p_a2
#1343636
0%s_T2_0
#1343681
0%tr_c_4_
#1344767
0%s_T1_1
#1345764
0%tr_c_3_
#1351334
0%s_T0_0
#1352983
0%tr_c_0_
#1357045
0%s_ch_1
#1357570
0%tr_c_7_
#1358470
0%s_ack
#1358477
0%tc3_p_a1
#1358522
0%tc3_p_a0
#1364937
0%tc3_p_a3
#1374082
0%tc3_p_a2
#1374084
1%c_q_a_3_
#1374438
0%tc0_q_r
#1374439
1%s_b0_1_1
#1374442
1%s_b0_2_0
#1374443
1%tr_c_4_
#1374571
1%s_b0_0_1
#1374984
1%s_b0_t_0
#1375063
1%tr_c_6_
#1386949
1%tr_c_1_
#1420002
1%tr_c_3_
#1422435
1%s_ack
#1422523
1%tc0_p_a
#1422553
0%s_b0_t_0
#1422582
0%s_b0_2_0
#1424020
0%tr_c_6_
#1430305
0%s_b0_0_1
#1449689
0%tr_c_1_
#1450850
0%s_b0_1_1
#1451535
0%tr_c_3_
#1482086
0%tr_c_4_
#1498801
0%s_ack
#1498928
0%tc0_p_a
#1499097
0%c_q_a_0_
#1499140
0%tc1_q_r
#1499143
1%s_b1_t_0
#1499152
1%s_b1_0_1
#1499153
1%tr_c_1_
#1499181
1%tr_c_6_
#1499373
1%s_b1_2_0
#1500419
1%s_b1_1_1
#1500511
1%tr_c_3_
#1512125
1%tr_c_4_
#1514852
1%s_ack
#1514854
1%tc1_p_a
#1514855
0%s_b1_0_1
#1514856
0%s_b1_2_0
#1514872
0%s_b1_t_0
#1514880
0%tr_c_6_
#1514974
0%tr_c_1_
#1516355
0%s_b1_1_1
#1516409
0%tr_c_3_
#1520576
0%tr_c_4_
#1571114
0%s_ack
#1571119
0%tc1_p_a
#1572186
0%c_q_a_1_
#1572187
0%tc2_q_r
#1572188
1%s_b2_1_1
#1572190
1%tr_c_3_
#1572251
1%s_b2_2_0
#1572288
1%tr_c_4_
#1572310
1%s_b2_t_0
#1572325
1%s_b2_0_1
#1572376
1%tr_c_1_
#1572453
1%tr_c_6_
#1572895
1%s_ack
#1572906
1%tc2_p_a
#1572907
0%s_b2_0_1
#1572915
0%s_b2_1_1
#1572931
0%s_b2_2_0
#1573060
0%tr_c_3_
#1576428
0%tr_c_1_
#1583159
0%s_b2_t_0
#1583389
0%tr_c_6_
#1589099
0%tr_c_4_
#1589790
0%s_ack
#1589804
0%tc2_p_a
#1591347
0%c_q_a_2_
#1592958
0%tc3_q_r
#1592959
1%s_T2_0
1%s_ch_1
#1592969
1%s_T1_1
#1593598
1%tr_c_7_
#1594762
1%tr_c_3_
#1599460
1%tr_c_4_
#1610470
1%s_T0_1
#1610602
1%tr_c_1_
#1610603
1%s_ack
#1610606
1%tc3_p_a3
#1610620
1%tc3_p_a0
#1610755
1%tc3_p_a1
#1613586
1%tc3_p_a2
#1613592
0%s_T1_1
#1614010
0%s_T0_1
#1614422
0%tr_c_3_
#1616047
0%s_ch_1
#1616049
0%tr_c_7_
#1616174
0%s_T2_0
#1616368
0%tr_c_4_
#1636942
0%tr_c_1_
#1637545
0%s_ack
#1637562
0%tc3_p_a1
0%tc3_p_a2
#1637683
0%tc3_p_a0
#1637971
0%tc3_p_a3
#1637972
0%c_q_a_3_
#1637973
1%tc0_q_r
#1637974
1%s_b0_1_0
#1637992
1%s_b0_2_1
#1638141
1%s_b0_t_0
#1638153
1%tr_c_5_
#1638314
1%tr_c_6_
#1638513
1%tr_c_2_
#1638999
1%s_b0_0_0
#1641546
1%tr_c_0_
#1656607
1%s_ack
#1656608
1%tc0_p_a
#1656609
0%s_b0_0_0
#1656637
0%tr_c_0_
#1656815
0%s_b0_2_1
#1656822
0%tr_c_5_
#1656998
0%s_b0_1_0
#1657412
0%tr_c_2_
#1657441
0%s_b0_t_0
#1657445
0%tr_c_6_
#1659224
0%s_ack
#1682098
0%tc0_p_a
#1682264
1%c_q_a_0_
#1722134
1%tc1_q_r
#1722273
1%s_b1_t_0
#1722990
1%s_b1_2_1
#1723067
1%s_b1_1_0
#1723069
1%tr_c_2_
#1723185
1%tr_c_5_
#1730779
1%s_b1_0_0
#1748482
1%tr_c_6_
#1784228
1%tr_c_0_
#1784234
1%s_ack
#1784488
1%tc1_p_a
#1784489
0%s_b1_1_0
#1784494
0%s_b1_2_1
#1784496
0%s_b1_0_0
#1784720
0%tr_c_5_
#1785315
0%tr_c_0_
#1787579
0%tr_c_2_
#1835524
0%s_b1_t_0
#1835525
0%tr_c_6_
#1835531
0%s_ack
#1835533
0%tc1_p_a
#1839095
1%c_q_a_1_
#1839110
1%tc2_q_r
#1839203
1%s_b2_2_1
#1839217
1%s_b2_1_0
#1839975
1%tr_c_2_
#1840762
1%s_b2_t_0
#1843142
1%tr_c_5_
#1843385
1%tr_c_6_
#1859911
1%s_b2_0_0
#1860627
1%tr_c_0_
#1860628
1%s_ack
#1862368
1%tc2_p_a
#1862369
0%s_b2_0_0
0%s_b2_t_0
#1862370
0%tr_c_6_
#1862375
0%tr_c_0_
#1874520
0%s_b2_1_0
#1890567
0%s_b2_2_1
#1912166
0%tr_c_5_
#1914009
0%tr_c_2_
#1914031
0%s_ack
#1936539
0%tc2_p_a
#1936546
1%c_q_a_2_
#1936611
1%tc3_q_r
#1936624
1%s_T0_0
#1936625
1%tr_c_0_
#1936652
1%s_ch_1
#1936653
1%tr_c_7_
#1936715
1%s_T2_1
#1937735
1%s_T1_0
#1950907
1%tr_c_2_
#2001093
1%tr_c_5_
#2001094
1%s_ack
#2001920
1%tc3_p_a2
#2002927
1%tc3_p_a3
#2004230
1%tc3_p_a1
#2020919
1%tc3_p_a0
#2020977
0%s_T1_0
#2023362
0%s_T2_1
#2023376
0%tr_c_5_
#2037467
0%s_T0_0
#2037692
0%s_ch_1
#2037823
0%tr_c_0_
#2058176
0%tr_c_2_
#2073530
0%tr_c_7_
#2073635
0%s_ack
#2073636
0%tc3_p_a1
#2073644
0%tc3_p_a2
#2073744
0%tc3_p_a0
#2111588
0%tc3_p_a3
#2111589
1%c_q_a_3_
#2147983
0%tc0_q_r
#2147984
1%s_b0_0_1
#2148733
1%s_b0_t_0
#2148784
1%tr_c_6_
#2151072
1%s_b0_1_0
#2151082
1%tr_c_2_
#2154739
1%tr_c_1_
#2196709
1%s_b0_2_1
#2197029
1%tr_c_5_
#2204611
1%s_ack
#2204612
1%tc0_p_a
#2204613
0%s_b0_0_1
#2204627
0%s_b0_t_0
#2205081
0%tr_c_6_
#2206299
0%s_b0_2_1
#2206342
0%s_b0_1_0
#2206343
0%tr_c_2_
#2206615
0%tr_c_5_
#2228887
0%tr_c_1_
#2229270
0%s_ack
#2236733
0%tc0_p_a
#2236753
0%c_q_a_0_
#2238076
0%tc1_q_r
#2238088
1%s_b1_2_1
#2238163
1%s_b1_0_1
#2238221
1%s_b1_t_0
#2238440
1%tr_c_6_
#2238989
1%tr_c_5_
#2239512
1%tr_c_1_
#2244798
1%s_b1_1_0
#2253129
1%tr_c_2_
#2284710
1%s_ack
#2284728
1%tc1_p_a
#2284848
0%s_b1_2_1
#2286912
0%tr_c_5_
#2286922
0%s_b1_0_1
#2287514
0%tr_c_1_
#2291043
0%s_b1_t_0
#2291050
0%tr_c_6_
#2322700
0%s_b1_1_0
#2322701
0%tr_c_2_
#2322825
0%s_ack
#2328755
0%tc1_p_a
#2329807
0%c_q_a_1_
#2330167
0%tc2_q_r
#2330171
1%s_b2_t_0
#2331264
1%s_b2_1_0
#2340361
1%s_b2_0_1
#2341835
1%tr_c_6_
#2350059
1%s_b2_2_1
#2353440
1%tr_c_5_
#2358022
1%tr_c_1_
#2369183
1%tr_c_2_
#2369439
1%s_ack
#2384369
1%tc2_p_a
#2384378
0%s_b2_2_1
#2384381
0%s_b2_1_0
#2384406
0%s_b2_0_1
#2384620
0%tr_c_5_
#2384796
0%s_b2_t_0
#2385216
0%tr_c_2_
#2386356
0%tr_c_6_
#2431142
0%tr_c_1_
#2468235
0%s_ack
#2468495
0%tc2_p_a
#2477483
0%c_q_a_2_
#2477484
0%tc3_q_r
#2477493
1%s_ch_1
#2477503
1%s_T2_1
#2477691
1%tr_c_5_
#2477868
1%s_T1_0
#2499447
1%tr_c_7_
#2513534
1%s_T0_1
#2517134
1%tr_c_1_
#2523644
1%tr_c_2_
#2523792
1%s_ack
#2523807
1%tc3_p_a1
#2524679
1%tc3_p_a3
#2534401
1%tc3_p_a2
#2542669
1%tc3_p_a0
#2542670
0%s_T1_0
#2543034
0%s_ch_1
#2544418
0%tr_c_7_
#2549395
0%s_T2_1
#2549416
0%tr_c_5_
#2550651
0%s_T0_1
#2550692
0%tr_c_1_
#2551628
0%tr_c_2_
#2551631
0%s_ack
#2551633
0%tc3_p_a3
#2552213
0%tc3_p_a2
#2553508
0%tc3_p_a0
#2561140
0%tc3_p_a1
#2561143
0%c_q_a_3_
#2561144
1%tc0_q_r
#2561145
1%s_b0_t_0
#2561220
1%tr_c_6_
#2562004
1%s_b0_2_1
#2564596
1%s_b0_0_0
#2564670
1%tr_c_0_
#2568277
1%s_b0_1_1
#2570547
1%tr_c_3_
#2589955
1%tr_c_5_
#2590053
1%s_ack
#2595824
1%tc0_p_a
#2598184
0%s_b0_t_0
#2598188
0%tr_c_6_
#2599677
0%s_b0_1_1
#2599682
0%tr_c_3_
#2601965
0%s_b0_2_1
#2602256
0%tr_c_5_
#2627552
0%s_b0_0_0
#2627646
0%tr_c_0_
#2627647
0%s_ack
#2627683
0%tc0_p_a
#2627685
1%c_q_a_0_
#2649503
1%tc1_q_r
#2649504
1%s_b1_1_1
#2649515
1%s_b1_t_0
#2649517
1%s_b1_2_1
#2649539
1%s_b1_0_0
#2661437
1%tr_c_0_
#2662507
1%tr_c_5_
#2671072
1%tr_c_6_
#2673535
1%tr_c_3_
#2716485
1%s_ack
#2716486
1%tc1_p_a
#2716625
0%s_b1_t_0
#2716629
0%tr_c_6_
#2716698
0%s_b1_0_0
#2717053
0%tr_c_0_
#2719419
0%s_b1_2_1
#2719497
0%tr_c_5_
#2723898
0%s_b1_1_1
#2762103
0%tr_c_3_
#2762129
0%s_ack
#2762393
0%tc1_p_a
#2762454
1%c_q_a_1_
#2762459
1%tc2_q_r
#2762478
1%s_b2_2_1
#2762531
1%s_b2_0_0
#2762558
1%s_b2_t_0
#2762570
1%s_b2_1_1
#2762580
1%tr_c_0_
#2762593
1%tr_c_6_
#2762845
1%tr_c_5_
#2768747
1%tr_c_3_
#2773571
1%s_ack
#2773599
1%tc2_p_a
#2773659
0%s_b2_2_1
#2774586
0%s_b2_0_0
#2775762
0%tr_c_5_
#2783169
0%s_b2_t_0
#2792294
0%tr_c_0_
#2794086
0%tr_c_6_
#2794102
0%s_b2_1_1
#2794103
0%tr_c_3_
#2819844
0%s_ack
#2819847
0%tc2_p_a
#2838511
1%c_q_a_2_
#2839980
1%tc3_q_r
#2839981
1%s_T2_1
#2839984
1%tr_c_5_
#2839986
1%s_T1_1
#2840010
1%s_T0_0
#2840072
1%tr_c_3_
#2840107
1%s_ch_1
#2840942
1%tr_c_0_
#2841600
1%tr_c_7_
#2850323
1%s_ack
#2850324
1%tc3_p_a2
#2850597
1%tc3_p_a1
#2858474
1%tc3_p_a3
#2864676
1%tc3_p_a0
#2864678
0%s_T1_1
#2865035
0%s_T2_1
#2865037
0%tr_c_5_
#2866692
0%s_ch_1
#2881123
0%tr_c_7_
#2884521
0%s_T0_0
#2884524
0%tr_c_0_
#2889189
0%tr_c_3_
#2926478
0%s_ack
#2926507
0%tc3_p_a2
#2926549
0%tc3_p_a3
#2926822
0%tc3_p_a0
#2928261
0%tc3_p_a1
#2928623
1%c_q_a_3_
#2928706
0%tc0_q_r
#2928707
1%s_b0_t_0
#2928708
1%tr_c_6_
#2928709
1%s_b0_2_1
#2928813
1%s_b0_1_1
#2929671
1%tr_c_3_
#2933054
1%tr_c_5_
#2976868
1%s_b0_0_1
#2976880
1%tr_c_1_
#3013309
1%s_ack
#3064278
1%tc0_p_a
#3064286
0%s_b0_t_0
#3064306
0%s_b0_2_1
#3069259
0%s_b0_1_1
#3069524
0%tr_c_3_
#3085641
0%tr_c_6_
#3097624
0%s_b0_0_1
#3097703
0%tr_c_1_
#3098637
0%tr_c_5_
#3098645
0%s_ack
#3098686
0%tc0_p_a
#3099325
0%c_q_a_0_
#3132880
0%tc1_q_r
#3132897
1%s_b1_0_1
#3132898
1%tr_c_1_
#3154492
1%s_b1_t_0
#3154493
1%tr_c_6_
#3157158
1%s_b1_1_1
#3157584
1%tr_c_3_
#3178099
1%s_b1_2_1
#3178437
1%tr_c_5_
#3178563
1%s_ack
#3178565
1%tc1_p_a
#3178725
0%s_b1_1_1
#3178726
0%tr_c_3_
#3179375
0%s_b1_0_1
#3179380
0%tr_c_1_
#3206396
0%s_b1_2_1
#3206966
0%tr_c_5_
#3240998
0%s_b1_t_0
#3299614
0%tr_c_6_
#3301746
0%s_ack
#3301748
0%tc1_p_a
#3301786
0%c_q_a_1_
#3314108
0%tc2_q_r
#3314109
1%s_b2_1_1
#3314112
1%s_b2_t_0
#3314123
1%tr_c_6_
#3314165
1%s_b2_0_1
#3314177
1%tr_c_1_
#3314655
1%tr_c_3_
#3322828
1%s_b2_2_1
#3324511
1%tr_c_5_
#3352679
1%s_ack
#3353547
1%tc2_p_a
#3353567
0%s_b2_1_1
#3355996
0%tr_c_3_
#3356187
0%s_b2_2_1
#3359063
0%tr_c_5_
#3369995
0%s_b2_0_1
#3372129
0%tr_c_1_
#3382255
0%s_b2_t_0
#3407218
0%tr_c_6_
#3407709
0%s_ack
#3435919
0%tc2_p_a
#3441880
0%c_q_a_2_
#3441902
0%tc3_q_r
#3441903
1%s_T2_1
#3441920
1%s_T1_1
#3441946
1%tr_c_3_
#3441957
1%tr_c_5_
#3442028
1%s_T0_1
#3444661
1%tr_c_1_
#3464740
1%s_ch_1
#3467012
1%tr_c_7_
#3467064
1%s_ack
#3467065
1%tc3_p_a3
1%tc3_p_a1
#3467172
1%tc3_p_a0
#3471364
1%tc3_p_a2
#3471365
0%s_T0_1
#3471368
0%s_ch_1
#3471370
0%s_T2_1
0%tr_c_7_
#3471374
0%tr_c_5_
#3474677
0%s_T1_1
#3474678
0%tr_c_3_
#3498384
0%tr_c_1_
#3498409
0%s_ack
#3498584
0%tc3_p_a0
#3500784
0%tc3_p_a1
#3511521
0%tc3_p_a2
#3536703
0%tc3_p_a3
#3537052
0%c_q_a_3_
#3538593
1%tc0_q_r
